<svg width="24" height="23" viewBox="0 0 24 23" fill="none" xmlns="http://www.w3.org/2000/svg">
<path d="M20.2678 3.45898H3.73204C3.18174 3.45898 2.83809 4.05869 3.11436 4.53711L8.33877 13.4182V18.8223C8.33877 19.2198 8.65772 19.541 9.05303 19.541H14.9468C15.3421 19.541 15.661 19.2198 15.661 18.8223V13.4182L20.8877 4.53711C21.1617 4.05869 20.8181 3.45898 20.2678 3.45898ZM14.0528 17.9238H9.94698V14.4199H14.0551V17.9238H14.0528ZM14.2685 12.6096L14.0551 12.9824H9.94473L9.73135 12.6096L5.27735 5.07617H18.7225L14.2685 12.6096Z" fill="#7B786E"/>
</svg>
