<svg width="147" height="45" viewBox="0 0 147 45" fill="none" xmlns="http://www.w3.org/2000/svg">
<g clip-path="url(#clip0)">
<path d="M2.832 33.3649C3.70763 32.0548 4.48597 30.7982 5.16701 29.5949C5.55937 28.8897 6.59608 26.961 8.27716 23.8088L10.2054 20.2208C11.625 17.57 12.5692 15.8717 13.0381 15.1262C13.8037 13.8743 14.5613 13.2484 15.3109 13.2484C15.8532 13.2484 16.1251 13.491 16.1267 13.9762C16.1008 14.4065 15.9928 14.8275 15.8085 15.2159C15.657 15.5604 15.2335 16.7564 14.5381 18.804C13.8007 21.0755 13.2627 23.4087 12.9304 25.7763C12.6812 27.3224 12.5445 28.8849 12.5213 30.4512C12.5213 30.8297 12.5405 31.247 12.5787 31.7031C12.617 32.1591 12.672 32.6735 12.7486 33.2145C13.5237 32.0388 14.1916 30.794 14.7439 29.4954C15.4377 27.8781 16.5103 25.3041 17.9617 21.7734C19.3349 18.4013 20.9434 14.8981 22.7872 11.264C24.3936 8.11279 26.2063 5.07429 28.2132 2.16885C29.1973 0.72295 29.9836 0 30.5721 0C30.7154 0.00966538 30.8542 0.0547315 30.9764 0.131269C31.0986 0.207806 31.2005 0.313491 31.2731 0.439107C31.4223 0.639566 31.5021 0.884264 31.5004 1.13537C31.5004 1.47986 31.0323 2.3322 30.096 3.69238C28.1516 6.52814 26.3872 9.48657 24.8136 12.5497C22.8996 16.3036 20.4976 21.6408 17.6076 28.5614C16.3237 31.6602 15.342 33.8654 14.6625 35.1771C13.9528 36.5179 13.137 37.1891 12.2151 37.1907C11.4272 37.1907 10.8378 36.7993 10.4471 36.0165C10.0563 35.2337 9.86014 34.0644 9.85855 32.5085C9.85855 30.0146 10.2206 26.9246 10.9447 23.2387C10.0215 24.6196 9.18871 26.0605 8.4518 27.5522C7.74205 28.9285 7.05463 30.2539 6.38954 31.5284C5.423 33.3705 4.78502 34.6102 4.4756 35.2475C4.08343 36.0873 3.58039 36.8692 2.98033 37.5716C2.81422 37.7659 2.60881 37.9218 2.37806 38.0285C2.1473 38.1352 1.8966 38.1904 1.64297 38.1902C1.35514 38.1997 1.07155 38.1179 0.8318 37.9561C0.592048 37.7943 0.408092 37.5606 0.305606 37.2877C0.0926241 36.8103 -0.012022 36.2905 -0.000624338 35.7666C-0.000624338 31.6683 1.88779 24.3256 5.66463 13.7385C7.5068 8.563 8.5794 5.38654 8.88244 4.20912C9.15518 3.07699 9.42711 2.35404 9.69826 2.04027C9.84435 1.83628 10.0351 1.66943 10.2555 1.55282C10.476 1.43622 10.7201 1.37305 10.9686 1.36827C11.6305 1.36827 11.9615 1.72974 11.9615 2.45269C11.9615 3.33091 11.6744 4.66521 11.1002 6.4556C10.4527 8.4886 9.41117 11.3634 7.97571 15.0801C6.99482 17.6419 6.30022 19.5617 5.89191 20.8394C4.04815 27.1761 3.02818 31.3513 2.832 33.3649Z" fill="#F6BE23"/>
<path d="M29.8361 18.8767C29.9609 18.8759 30.0841 18.9062 30.1946 18.965C30.3052 19.0238 30.3998 19.1093 30.4701 19.214C30.5837 19.3813 30.6468 19.5786 30.6519 19.7817C30.6519 20.0889 30.4326 20.6049 29.994 21.3294C28.4214 24.1016 27.3049 26.3828 26.6446 28.1732C25.9348 30.017 25.308 31.9109 24.7642 33.8549C24.5233 34.7153 24.1453 35.1456 23.6301 35.1456C23.4856 35.1455 23.3435 35.1075 23.2177 35.0352C23.0919 34.9629 22.9868 34.8589 22.9124 34.7331C22.7544 34.5246 22.6701 34.2683 22.6732 34.0053C22.6732 33.4894 23.1564 31.7677 24.123 28.8404C24.879 26.5324 26.1023 23.9843 27.793 21.196C28.1541 20.5536 28.5637 19.9404 29.0179 19.362C29.1117 19.226 29.2334 19.1123 29.3746 19.0285C29.5158 18.9448 29.6733 18.893 29.8361 18.8767ZM34.1424 9.29645C34.8219 9.29645 35.164 9.69189 35.164 10.4852C35.164 11.2081 34.8315 12.0087 34.1664 12.8869C33.5284 13.7296 32.9167 14.1509 32.3314 14.1509C32.1939 14.1536 32.0579 14.1221 31.9352 14.0591C31.8126 13.996 31.7071 13.9035 31.628 13.7894C31.443 13.5563 31.3462 13.2637 31.3553 12.9646C31.3553 12.1381 31.754 11.2599 32.5515 10.3299C33.1432 9.64094 33.6727 9.29645 34.14 9.29645H34.1424Z" fill="#393330"/>
<path d="M34.1973 25.7715C33.7428 27.1155 33.403 28.1999 33.1781 29.0248C32.9993 29.587 32.8845 30.1682 32.836 30.7569C32.836 31.1863 33.0178 31.4023 33.3815 31.4023C33.9254 31.4023 34.6279 30.8168 35.4892 29.6458C36.149 28.6558 36.7544 27.6297 37.3027 26.5721C37.6217 25.9882 37.9534 25.6955 38.2979 25.6939C38.6903 25.6939 38.8889 25.9098 38.8889 26.3392C38.8889 27.0815 38.1408 28.58 36.6448 30.8346C35.0881 33.1926 33.6455 34.3717 32.3169 34.3717C32.0316 34.3701 31.7517 34.2929 31.505 34.1478C31.2582 34.0027 31.0532 33.7947 30.9101 33.5444C30.6417 33.1089 30.5075 32.6021 30.5249 32.0888C30.5249 31.1184 30.7817 29.7841 31.2953 28.0859C31.8089 26.3877 32.5721 24.3135 33.5849 21.8632C36.183 15.6478 38.8346 10.5257 41.5397 6.49687C43.7008 3.26219 45.4911 1.64485 46.9106 1.64485C47.1297 1.64297 47.3459 1.69629 47.5396 1.80003C47.7334 1.90377 47.8987 2.05469 48.0207 2.23923C48.3209 2.62985 48.4812 3.11233 48.4753 3.60749C48.4753 6.01894 46.5861 10.0308 42.8076 15.6429C40.9856 18.3008 38.955 20.8053 36.7357 23.132C36.1168 23.7903 35.2707 24.6701 34.1973 25.7715ZM35.805 21.6667C38.9487 18.6034 41.759 14.7299 44.2359 10.0461C45.5214 7.62011 46.1594 6.01005 46.1499 5.21594C46.1499 4.83748 46.0063 4.64825 45.7192 4.64825C44.8883 4.64825 43.3778 6.53326 41.188 10.3033C39.3825 13.4037 37.5882 17.1915 35.805 21.6667Z" fill="#393330"/>
<path d="M44.6331 25.7715C44.1785 27.1155 43.838 28.1999 43.6115 29.0247C43.4343 29.5873 43.3204 30.1684 43.2718 30.7569C43.2718 31.1863 43.4536 31.4022 43.8173 31.4022C44.3596 31.4022 45.0621 30.8167 45.925 29.6458C46.5848 28.6558 47.1902 27.6297 47.7385 26.572C48.0575 25.9882 48.3892 25.6954 48.7337 25.6938C49.1261 25.6938 49.3246 25.9097 49.3246 26.3391C49.3246 27.0815 48.5766 28.58 47.0806 30.8345C45.5191 33.1926 44.0765 34.3717 42.7527 34.3717C42.4674 34.3701 42.1875 34.2929 41.9408 34.1478C41.694 34.0026 41.489 33.7946 41.3459 33.5444C41.0774 33.1089 40.9433 32.6021 40.9607 32.0888C40.9607 31.1184 41.2175 29.7841 41.7311 28.0859C42.2447 26.3877 43.0078 24.3167 44.0206 21.8729C46.6188 15.6574 49.2704 10.5353 51.9755 6.50654C54.1366 3.27187 55.9269 1.65453 57.3465 1.65453C57.5655 1.65264 57.7817 1.70596 57.9754 1.8097C58.1692 1.91345 58.3345 2.06436 58.4565 2.2489C58.7567 2.63952 58.917 3.122 58.9111 3.61717C58.9111 6.02862 57.0219 10.0404 53.2434 15.6526C51.4214 18.3105 49.3908 20.815 47.1715 23.1417C46.5526 23.7935 45.7065 24.6701 44.6331 25.7715ZM46.2408 21.6667C49.3861 18.6034 52.1964 14.7299 54.6717 10.0461C55.9557 7.62008 56.5936 6.01002 56.5857 5.21591C56.5857 4.83745 56.4421 4.64822 56.155 4.64822C55.3241 4.64822 53.8136 6.53323 51.6238 10.3032C49.8183 13.4037 48.024 17.1915 46.2408 21.6667Z" fill="#393330"/>
<path d="M57.289 18.8767C57.4139 18.8757 57.5371 18.9059 57.6477 18.9647C57.7583 19.0236 57.8528 19.1092 57.923 19.214C58.0376 19.3808 58.1008 19.5784 58.1048 19.7817C58.1048 20.0898 57.8871 20.6065 57.4469 21.3294C55.8758 24.1016 54.7594 26.3828 54.0975 28.1732C53.3861 30.017 52.7593 31.9109 52.217 33.8549C51.9746 34.7153 51.5974 35.1456 51.0854 35.1456C50.9409 35.1455 50.7988 35.1075 50.673 35.0352C50.5472 34.9629 50.442 34.8589 50.3677 34.7331C50.2107 34.5241 50.1265 34.2681 50.1285 34.0053C50.1285 33.4894 50.6117 31.7677 51.5783 28.8404C52.3343 26.5324 53.5584 23.9843 55.2506 21.196C55.6065 20.5552 56.0113 19.9436 56.4612 19.3668C56.5553 19.2286 56.6782 19.113 56.8213 19.0283C56.9643 18.9436 57.124 18.8919 57.289 18.8767ZM61.5953 9.29645C62.2748 9.29645 62.6145 9.6927 62.6145 10.4852C62.6145 11.2081 62.2819 12.0087 61.6169 12.8869C60.9789 13.7296 60.3672 14.1509 59.7819 14.1509C59.6444 14.1534 59.5085 14.1218 59.3859 14.0588C59.2633 13.9958 59.1577 13.9033 59.0785 13.7894C58.8952 13.5554 58.7995 13.2632 58.8082 12.9646C58.8082 12.1381 59.2069 11.2599 60.0044 10.3299C60.5961 9.64094 61.1264 9.29645 61.5953 9.29645Z" fill="#393330"/>
<path d="M64.5955 30.0825C64.166 30.9614 63.6735 31.8071 63.1218 32.6128C62.1648 33.9568 61.2206 34.628 60.2891 34.6264C59.4725 34.6264 58.8345 34.1873 58.3752 33.3091C58.0753 32.6823 57.9276 31.9919 57.9445 31.2955C57.9445 29.3838 58.4733 27.2748 59.5307 24.9685C60.7094 22.4034 62.1297 20.4326 63.7916 19.0563C64.889 18.1587 65.9432 17.7099 66.9544 17.7099C67.2506 17.7022 67.545 17.7582 67.8183 17.874C68.0917 17.9898 68.3378 18.1629 68.5406 18.3819C68.8879 18.7397 69.0829 19.2214 69.0837 19.7234C69.0468 20.2678 68.9164 20.8014 68.6985 21.3003C68.8979 21.5803 69.0156 21.9116 69.0382 22.2562C69.0382 22.6177 68.8277 23.2096 68.4042 24.0369C67.8731 25.1162 67.4337 26.2394 67.0908 27.3945C66.6219 28.8743 66.3874 30.0623 66.3874 30.9583C66.3613 31.6014 66.5623 32.2328 66.9544 32.739C67.2363 32.9782 67.5485 33.1781 67.8827 33.3333C68.0705 33.4391 68.2241 33.5978 68.3248 33.7903C68.4254 33.9828 68.4688 34.2008 68.4497 34.4178C68.4551 34.5662 68.4299 34.7141 68.3755 34.852C68.3211 34.9899 68.2388 35.1147 68.1339 35.2183C68.0303 35.3254 67.9067 35.4103 67.7703 35.4682C67.6339 35.5261 67.4875 35.5558 67.3396 35.5556C66.523 35.5556 65.8204 35.1423 65.2319 34.3159C64.7299 33.572 64.4782 32.6837 64.5141 31.7831C64.507 31.4459 64.5381 30.8758 64.5955 30.0825ZM67.4281 21.5915C67.2905 21.2739 67.0902 20.9882 66.8396 20.7521C66.6523 20.5807 66.41 20.4841 66.1577 20.4803C65.0094 20.4803 63.7629 21.6254 62.4184 23.9156C60.9367 26.4467 60.1966 28.5897 60.1982 30.3445C60.1769 30.6861 60.2516 31.0268 60.4135 31.327C60.4822 31.436 60.5782 31.5244 60.6917 31.5833C60.8053 31.6421 60.9322 31.6692 61.0595 31.6618C61.7836 31.6618 62.6297 30.7836 63.5978 29.0272C64.3422 27.6434 65.0154 26.2215 65.6147 24.7671C65.9535 23.9365 66.3393 23.1265 66.7702 22.3411C66.9545 22.061 67.1768 21.8086 67.4305 21.5915H67.4281Z" fill="#393330"/>
<path d="M74.3087 25.7472C75.3398 24.4797 76.4591 23.2887 77.6581 22.1834C79.1222 20.8895 80.1039 20.2426 80.6031 20.2426C80.7249 20.2438 80.8448 20.2722 80.9544 20.3259C81.064 20.3796 81.1606 20.4572 81.2371 20.5531C81.3959 20.7201 81.4857 20.9423 81.4883 21.1742C81.4883 21.4977 81.2236 22.0306 80.6941 22.7729C80.0141 23.7008 79.444 24.7064 78.9954 25.769C82.5298 21.7257 84.947 19.704 86.2469 19.704C86.3764 19.7022 86.505 19.7263 86.6253 19.775C86.7456 19.8237 86.8552 19.8961 86.9478 19.9879C87.0517 20.0868 87.1338 20.2069 87.1887 20.3403C87.2435 20.4737 87.2699 20.6173 87.266 20.7618C87.266 21.247 86.9407 21.8632 86.2923 22.6225C83.439 25.9785 82.0123 28.7328 82.0123 30.8855C82.0123 31.7637 82.1487 32.392 82.4214 32.7705L83.0099 33.622C83.1365 33.7929 83.2007 34.0029 83.1918 34.2164C83.1883 34.5018 83.0838 34.7764 82.8975 34.9903C82.8088 35.1145 82.6933 35.2164 82.5598 35.2883C82.4262 35.3603 82.2782 35.4002 82.1271 35.4051C81.6271 35.4051 81.1702 35.0437 80.7443 34.3207C80.2141 33.397 79.9474 32.3421 79.9739 31.2737C79.9954 29.6181 80.3985 27.9905 81.151 26.5211C81.5546 25.7336 82.0093 24.9742 82.5123 24.2479C81.2268 25.3493 79.9197 26.8648 78.5911 28.7943C77.6425 30.1768 76.8231 31.6461 76.1437 33.1829C75.7968 33.9592 75.3877 34.345 74.9188 34.345C74.4068 34.345 74.1484 34.0175 74.1484 33.3746C74.1484 32.6694 74.5718 31.2138 75.4188 29.0078C75.946 27.6514 76.5434 26.3242 77.2083 25.0315C74.6245 27.2958 72.6834 30.3768 71.3851 34.2746C71.0662 35.1367 70.6427 35.5677 70.1148 35.5677C69.999 35.5692 69.8847 35.5417 69.782 35.4875C69.6793 35.4333 69.5914 35.3542 69.5262 35.2572C69.3621 35.0435 69.2774 34.7781 69.287 34.5075C69.287 33.4918 69.7854 31.6586 70.7823 29.0078C71.7352 26.3826 72.9153 23.8481 74.3087 21.4338C75.2146 19.8666 75.9172 19.083 76.4164 19.083C76.8678 19.083 77.0943 19.3587 77.0959 19.9102C77.0959 20.1528 76.8159 20.7545 76.2561 21.7176C75.5174 23.0144 74.8667 24.3607 74.3087 25.7472Z" fill="#393330"/>
<path d="M100.623 20.0922C101.272 19.6943 102.578 18.7991 104.542 17.4066C105.116 16.9926 106.68 15.968 109.233 14.3328C110.276 13.6859 111.606 12.9371 113.221 12.0864C114.206 11.5704 114.878 11.3125 115.238 11.3125C115.471 11.3216 115.691 11.4236 115.851 11.5963C116.08 11.865 116.201 12.2115 116.19 12.5667C116.196 12.7926 116.148 13.0164 116.049 13.2189C115.95 13.4214 115.804 13.5964 115.623 13.7288C115.445 13.8905 114.977 14.1056 114.219 14.3741C109.367 16.5332 105.341 19.1622 102.14 22.261C101.703 24.1194 101.363 25.9356 101.121 27.7099C100.668 30.8836 100.418 34.0837 100.372 37.2902C100.372 38.2185 100.474 38.9196 100.678 39.3935C100.884 39.8787 101.188 40.1043 101.597 40.1043C102.394 40.1043 103.989 38.1845 106.382 34.345C106.834 33.6172 107.197 33.2606 107.468 33.2606C107.817 33.2606 107.989 33.5032 107.989 33.9884C107.989 34.6773 107.332 36.1063 106.018 38.2751C104.131 41.4435 102.409 43.0277 100.85 43.0277C99.552 43.0277 98.6907 42.236 98.2664 40.6526C97.9686 39.4367 97.8319 38.186 97.8597 36.9335C97.8825 33.7147 98.2167 30.5059 98.8574 27.3532C99.5225 23.9439 99.9212 21.826 100.054 20.9995C99.2067 22.7786 97.6277 25.7998 95.3166 30.0631C92.5509 35.5054 90.8962 39.8358 90.3523 43.0543C90.1418 44.1056 89.7191 44.6304 89.0843 44.6288C88.8745 44.6277 88.6698 44.5631 88.4964 44.4434C88.3229 44.3237 88.1886 44.1543 88.1106 43.9568C87.9803 43.6509 87.9182 43.3195 87.9288 42.9864C87.9288 41.6424 88.5404 39.421 89.7638 36.3222C90.4608 34.5852 91.4129 32.4333 92.6203 29.8666C93.0733 28.9204 94.0853 27.0443 95.6563 24.2382C99.1014 18.0228 101.27 13.4943 102.161 10.6526C102.345 10.0039 102.585 9.37301 102.879 8.76759C102.982 8.59104 103.128 8.4439 103.302 8.33995C103.477 8.236 103.674 8.17863 103.877 8.17322C104.089 8.17578 104.292 8.26292 104.441 8.41582C104.554 8.5271 104.642 8.66046 104.702 8.80771C104.762 8.95497 104.791 9.11303 104.788 9.2722C104.788 10.7699 103.4 14.3765 100.623 20.0922Z" fill="#F6BE23"/>
<path d="M115.315 26.8826C115.44 26.8815 115.564 26.9117 115.675 26.9706C115.785 27.0294 115.88 27.115 115.951 27.2198C116.064 27.3874 116.126 27.5846 116.131 27.7875C116.131 28.0948 115.912 28.6107 115.475 29.3353C113.904 32.1074 112.788 34.3886 112.126 36.179C111.414 38.0228 110.787 39.9167 110.243 41.8607C110.004 42.7212 109.626 43.1514 109.111 43.1514C108.967 43.1513 108.825 43.1133 108.699 43.041C108.573 42.9687 108.468 42.8647 108.393 42.739C108.235 42.5305 108.151 42.2741 108.154 42.0112C108.154 41.4952 108.638 39.7736 109.604 36.8462C110.36 34.5382 111.583 31.9901 113.274 29.2018C113.635 28.5594 114.045 27.9463 114.499 27.3678C114.592 27.2321 114.714 27.1186 114.855 27.0348C114.995 26.9511 115.152 26.8992 115.315 26.8826ZM119.621 17.3023C120.301 17.3023 120.643 17.6977 120.643 18.491C120.643 19.2188 120.308 20.0146 119.645 20.8928C119.007 21.7338 118.395 22.1551 117.808 22.1567C117.671 22.1591 117.535 22.1273 117.413 22.0643C117.291 22.0013 117.186 21.9089 117.107 21.7952C116.922 21.5621 116.825 21.2695 116.834 20.9704C116.834 20.1439 117.233 19.2657 118.03 18.3358C118.623 17.6468 119.154 17.3023 119.621 17.3023Z" fill="#393330"/>
<path d="M125.097 27.2708C126.608 23.6722 128.035 20.5386 129.38 17.87C130.68 15.2822 131.563 13.6552 132.031 12.9889C132.546 12.2546 133.03 11.8875 133.483 11.8875C133.61 11.8912 133.734 11.9231 133.847 11.9809C133.961 12.0388 134.06 12.1212 134.138 12.2222C134.312 12.4238 134.409 12.6821 134.411 12.95C134.411 13.3455 134.153 14.0102 133.641 14.9394C131.449 18.9665 129.44 23.0552 127.612 27.2053C125.497 32.0346 124.439 35.6542 124.439 38.0641C124.439 39.0458 124.605 39.8205 124.937 40.3882C125.174 40.697 125.448 40.9749 125.753 41.2154C125.863 41.363 125.912 41.5485 125.889 41.7322C125.888 42.0788 125.763 42.4132 125.538 42.6735C125.448 42.7998 125.331 42.9039 125.196 42.9779C125.061 43.0519 124.911 43.0938 124.758 43.1004C124.408 43.1004 124.022 42.8578 123.6 42.3726C123.008 41.7111 122.629 40.8827 122.514 39.9976C122.467 39.6191 122.414 38.9132 122.353 37.8797C120.768 41.1321 119.257 42.7592 117.822 42.7608C116.991 42.7608 116.326 42.2271 115.827 41.1596C115.486 40.4069 115.316 39.5861 115.329 38.7579C115.329 36.0731 116.19 33.3697 117.913 30.6478C119.618 27.963 121.452 26.6206 123.416 26.6206C124.031 26.6458 124.622 26.8741 125.097 27.2708ZM124.327 29.3887C124.028 29.1235 123.655 28.9605 123.26 28.9229C121.984 28.9229 120.783 29.8124 119.657 31.5915C118.163 33.8978 117.414 36.1273 117.413 38.28C117.41 38.5294 117.456 38.7768 117.549 39.0078C117.731 39.4396 118.003 39.6555 118.365 39.6555C118.893 39.6555 119.535 39.07 120.291 37.8991C121.401 36.1614 122.342 34.3187 123.102 32.3969C123.404 31.674 123.699 30.951 123.987 30.2281L124.191 29.7429L124.327 29.3887Z" fill="#393330"/>
<path d="M137.686 27.2708C139.197 23.6722 140.624 20.5386 141.969 17.87C143.269 15.2822 144.152 13.6552 144.62 12.9889C145.133 12.2546 145.616 11.8875 146.069 11.8875C146.197 11.8912 146.321 11.9231 146.435 11.9809C146.549 12.0387 146.648 12.1211 146.727 12.2222C146.901 12.4238 146.998 12.6821 147 12.95C147 13.3455 146.742 14.0102 146.23 14.9394C144.038 18.9665 142.029 23.0552 140.201 27.2053C138.086 32.0346 137.028 35.6542 137.028 38.0641C137.028 39.0458 137.194 39.8205 137.526 40.3882C137.763 40.697 138.037 40.9749 138.342 41.2154C138.452 41.363 138.501 41.5485 138.478 41.7322C138.477 42.0788 138.352 42.4132 138.127 42.6735C138.037 42.8 137.919 42.9042 137.784 42.9782C137.648 43.0521 137.498 43.0939 137.344 43.1004C136.997 43.1004 136.611 42.8578 136.189 42.3726C135.597 41.7111 135.218 40.8827 135.103 39.9976C135.057 39.6191 135.002 38.9132 134.942 37.8797C133.357 41.1321 131.846 42.7592 130.411 42.7608C129.58 42.7608 128.915 42.2271 128.416 41.1596C128.074 40.4072 127.904 39.5862 127.918 38.7579C127.918 36.0731 128.779 33.3697 130.502 30.6478C132.207 27.963 134.041 26.6206 136.004 26.6206C136.62 26.6461 137.21 26.8744 137.686 27.2708ZM136.916 29.3887C136.617 29.1235 136.244 28.9605 135.849 28.9229C134.573 28.9229 133.372 29.8124 132.246 31.5915C130.752 33.8978 130.003 36.1273 130.002 38.28C129.999 38.5294 130.045 38.7768 130.138 39.0078C130.32 39.4396 130.592 39.6555 130.954 39.6555C131.484 39.6555 132.122 39.07 132.868 37.8991C133.977 36.1608 134.918 34.3182 135.679 32.3969C135.981 31.674 136.275 30.951 136.562 30.2281L136.768 29.7429L136.916 29.3887Z" fill="#393330"/>
<mask id="path-12-outside-1" maskUnits="userSpaceOnUse" x="38.9053" y="39" width="44" height="7" fill="black">
<rect fill="white" x="38.9053" y="39" width="44" height="7"/>
<path d="M40.4418 44.513C40.2796 44.513 40.1486 44.49 40.0488 44.4441V44.0993C40.1611 44.1411 40.2838 44.162 40.4169 44.162C40.5749 44.162 40.6955 44.1327 40.7787 44.0742C40.8619 44.0116 40.9284 43.9134 40.9784 43.7796L41.1094 43.3973L39.9053 40.0627H40.3358L41.3153 42.8332L42.2324 40.0627H42.6192L41.3589 43.8298C41.2757 44.0805 41.1634 44.2581 41.022 44.3626C40.8848 44.4629 40.6914 44.513 40.4418 44.513Z"/>
<path d="M43.7367 44.4503H43.3374V40.0627H45.365V40.4137H43.7367V44.4503Z"/>
<path d="M45.489 44.4566C45.4266 44.4566 45.3746 44.4503 45.333 44.4378V44.0868C45.3663 44.0993 45.4079 44.1056 45.4578 44.1056C45.6741 44.1056 45.8279 44.0492 45.9195 43.9363C46.011 43.8235 46.0629 43.6292 46.0754 43.3534L46.2376 40.0627H48.3214V44.4503H47.9221V40.4137H46.612L46.4622 43.4098C46.4456 43.7734 46.3624 44.0387 46.2127 44.2059C46.0629 44.373 45.8217 44.4566 45.489 44.4566Z"/>
<path d="M51.4916 44.4503H49.3079V40.0627H51.4916V40.4137H49.7072V42.0497H51.1796V42.4007H49.7072V44.0993H51.4916V44.4503Z"/>
<path d="M53.5136 44.4503H52.2658V40.0627H53.4325C53.8276 40.0627 54.1291 40.1546 54.3371 40.3385C54.5451 40.5182 54.6491 40.7814 54.6491 41.1282V41.2097C54.6491 41.7028 54.4307 42.0183 53.994 42.1562V42.1687C54.4889 42.2899 54.7364 42.6284 54.7364 43.1842V43.297C54.7364 43.6898 54.6345 43.9802 54.4307 44.1683C54.2311 44.3563 53.9253 44.4503 53.5136 44.4503ZM52.6651 40.4137V42.0183H53.3451C53.6571 42.0183 53.8838 41.9577 54.0252 41.8365C54.1707 41.7154 54.2435 41.5231 54.2435 41.2599V41.1784C54.2435 40.911 54.177 40.7166 54.0439 40.5955C53.915 40.4743 53.7091 40.4137 53.4262 40.4137H52.6651ZM52.6651 42.3693V44.0993H53.5136C53.8047 44.0993 54.0127 44.0387 54.1375 43.9175C54.2664 43.7922 54.3309 43.5853 54.3309 43.297V43.1779C54.3309 42.8938 54.2539 42.689 54.1 42.5636C53.9503 42.4341 53.7049 42.3693 53.3638 42.3693H52.6651Z"/>
<path d="M55.5086 43.297V41.216C55.5086 40.8232 55.6146 40.5223 55.8267 40.3134C56.0389 40.1045 56.3425 40 56.7376 40C57.1327 40 57.4364 40.1045 57.6485 40.3134C57.8606 40.5223 57.9667 40.8232 57.9667 41.216V43.297C57.9667 43.6898 57.8606 43.9907 57.6485 44.1996C57.4364 44.4085 57.1327 44.513 56.7376 44.513C56.3425 44.513 56.0389 44.4085 55.8267 44.1996C55.6146 43.9907 55.5086 43.6898 55.5086 43.297ZM57.5674 43.3283V41.1847C57.5674 40.6289 57.2908 40.351 56.7376 40.351C56.1844 40.351 55.9078 40.6289 55.9078 41.1847V43.3283C55.9078 43.8841 56.1844 44.162 56.7376 44.162C57.2908 44.162 57.5674 43.8841 57.5674 43.3283Z"/>
<path d="M61.5288 40.0627V44.0993H61.8969V45.0395H61.4976V44.4503H58.9896V45.0395H58.584V44.0993H59.0083C59.1746 43.9405 59.2662 43.671 59.2828 43.2907L59.445 40.0627H61.5288ZM59.4263 44.0993H61.1233V40.4137H59.8193L59.6821 43.2782C59.6654 43.6417 59.5802 43.9154 59.4263 44.0993Z"/>
<path d="M62.5819 43.297V41.216C62.5819 40.8232 62.688 40.5223 62.9001 40.3134C63.1122 40.1045 63.4158 40 63.8109 40C64.2061 40 64.5097 40.1045 64.7218 40.3134C64.9339 40.5223 65.04 40.8232 65.04 41.216V43.297C65.04 43.6898 64.9339 43.9907 64.7218 44.1996C64.5097 44.4085 64.2061 44.513 63.8109 44.513C63.4158 44.513 63.1122 44.4085 62.9001 44.1996C62.688 43.9907 62.5819 43.6898 62.5819 43.297ZM64.6407 43.3283V41.1847C64.6407 40.6289 64.3641 40.351 63.8109 40.351C63.2578 40.351 62.9812 40.6289 62.9812 41.1847V43.3283C62.9812 43.8841 63.2578 44.162 63.8109 44.162C64.3641 44.162 64.6407 43.8841 64.6407 43.3283Z"/>
<path d="M66.3609 44.4503H65.9616V40.0627H67.1096C67.5255 40.0627 67.8333 40.1567 68.0329 40.3447C68.2326 40.5328 68.3324 40.8232 68.3324 41.216V41.3727C68.3324 41.7655 68.2326 42.0559 68.0329 42.244C67.8333 42.432 67.5255 42.526 67.1096 42.526H66.3609V44.4503ZM66.3609 40.4137V42.175H67.1096C67.4007 42.175 67.6108 42.1144 67.7397 41.9932C67.8686 41.8679 67.9331 41.661 67.9331 41.3727V41.216C67.9331 40.9277 67.8686 40.7229 67.7397 40.6017C67.6108 40.4764 67.4007 40.4137 67.1096 40.4137H66.3609Z"/>
<path d="M69.0764 43.297V41.216C69.0764 40.8232 69.1825 40.5223 69.3946 40.3134C69.6067 40.1045 69.9103 40 70.3055 40C70.7006 40 71.0042 40.1045 71.2164 40.3134C71.4285 40.5223 71.5345 40.8232 71.5345 41.216V43.297C71.5345 43.6898 71.4285 43.9907 71.2164 44.1996C71.0042 44.4085 70.7006 44.513 70.3055 44.513C69.9103 44.513 69.6067 44.4085 69.3946 44.1996C69.1825 43.9907 69.0764 43.6898 69.0764 43.297ZM71.1352 43.3283V41.1847C71.1352 40.6289 70.8587 40.351 70.3055 40.351C69.7523 40.351 69.4757 40.6289 69.4757 41.1847V43.3283C69.4757 43.8841 69.7523 44.162 70.3055 44.162C70.8587 44.162 71.1352 43.8841 71.1352 43.3283Z"/>
<path d="M75.0966 40.0627V44.0993H75.4647V45.0395H75.0654V44.4503H72.5574V45.0395H72.1519V44.0993H72.5761C72.7425 43.9405 72.834 43.671 72.8506 43.2907L73.0129 40.0627H75.0966ZM72.9941 44.0993H74.6911V40.4137H73.3872L73.2499 43.2782C73.2333 43.6417 73.148 43.9154 72.9941 44.0993Z"/>
<path d="M76.1497 43.297V41.216C76.1497 40.8232 76.2558 40.5223 76.4679 40.3134C76.68 40.1045 76.9837 40 77.3788 40C77.7739 40 78.0776 40.1045 78.2897 40.3134C78.5018 40.5223 78.6079 40.8232 78.6079 41.216V43.297C78.6079 43.6898 78.5018 43.9907 78.2897 44.1996C78.0776 44.4085 77.7739 44.513 77.3788 44.513C76.9837 44.513 76.68 44.4085 76.4679 44.1996C76.2558 43.9907 76.1497 43.6898 76.1497 43.297ZM78.2086 43.3283V41.1847C78.2086 40.6289 77.932 40.351 77.3788 40.351C76.8256 40.351 76.549 40.6289 76.549 41.1847V43.3283C76.549 43.8841 76.8256 44.162 77.3788 44.162C77.932 44.162 78.2086 43.8841 78.2086 43.3283Z"/>
<path d="M80.7772 44.4503H79.5295V40.0627H80.6961C81.0913 40.0627 81.3928 40.1546 81.6008 40.3385C81.8087 40.5182 81.9127 40.7814 81.9127 41.1282V41.2097C81.9127 41.7028 81.6944 42.0183 81.2576 42.1562V42.1687C81.7526 42.2899 82.0001 42.6284 82.0001 43.1842V43.297C82.0001 43.6898 81.8982 43.9802 81.6944 44.1683C81.4947 44.3563 81.189 44.4503 80.7772 44.4503ZM79.9288 40.4137V42.0183H80.6088C80.9207 42.0183 81.1474 41.9577 81.2888 41.8365C81.4344 41.7154 81.5072 41.5231 81.5072 41.2599V41.1784C81.5072 40.911 81.4406 40.7166 81.3075 40.5955C81.1786 40.4743 80.9727 40.4137 80.6899 40.4137H79.9288ZM79.9288 42.3693V44.0993H80.7772C81.0684 44.0993 81.2764 44.0387 81.4011 43.9175C81.5301 43.7922 81.5945 43.5853 81.5945 43.297V43.1779C81.5945 42.8938 81.5176 42.689 81.3637 42.5636C81.214 42.4341 80.9686 42.3693 80.6275 42.3693H79.9288Z"/>
</mask>
<path d="M40.4418 44.513C40.2796 44.513 40.1486 44.49 40.0488 44.4441V44.0993C40.1611 44.1411 40.2838 44.162 40.4169 44.162C40.5749 44.162 40.6955 44.1327 40.7787 44.0742C40.8619 44.0116 40.9284 43.9134 40.9784 43.7796L41.1094 43.3973L39.9053 40.0627H40.3358L41.3153 42.8332L42.2324 40.0627H42.6192L41.3589 43.8298C41.2757 44.0805 41.1634 44.2581 41.022 44.3626C40.8848 44.4629 40.6914 44.513 40.4418 44.513Z" fill="#F6BE23"/>
<path d="M43.7367 44.4503H43.3374V40.0627H45.365V40.4137H43.7367V44.4503Z" fill="#F6BE23"/>
<path d="M45.489 44.4566C45.4266 44.4566 45.3746 44.4503 45.333 44.4378V44.0868C45.3663 44.0993 45.4079 44.1056 45.4578 44.1056C45.6741 44.1056 45.8279 44.0492 45.9195 43.9363C46.011 43.8235 46.0629 43.6292 46.0754 43.3534L46.2376 40.0627H48.3214V44.4503H47.9221V40.4137H46.612L46.4622 43.4098C46.4456 43.7734 46.3624 44.0387 46.2127 44.2059C46.0629 44.373 45.8217 44.4566 45.489 44.4566Z" fill="#F6BE23"/>
<path d="M51.4916 44.4503H49.3079V40.0627H51.4916V40.4137H49.7072V42.0497H51.1796V42.4007H49.7072V44.0993H51.4916V44.4503Z" fill="#F6BE23"/>
<path d="M53.5136 44.4503H52.2658V40.0627H53.4325C53.8276 40.0627 54.1291 40.1546 54.3371 40.3385C54.5451 40.5182 54.6491 40.7814 54.6491 41.1282V41.2097C54.6491 41.7028 54.4307 42.0183 53.994 42.1562V42.1687C54.4889 42.2899 54.7364 42.6284 54.7364 43.1842V43.297C54.7364 43.6898 54.6345 43.9802 54.4307 44.1683C54.2311 44.3563 53.9253 44.4503 53.5136 44.4503ZM52.6651 40.4137V42.0183H53.3451C53.6571 42.0183 53.8838 41.9577 54.0252 41.8365C54.1707 41.7154 54.2435 41.5231 54.2435 41.2599V41.1784C54.2435 40.911 54.177 40.7166 54.0439 40.5955C53.915 40.4743 53.7091 40.4137 53.4262 40.4137H52.6651ZM52.6651 42.3693V44.0993H53.5136C53.8047 44.0993 54.0127 44.0387 54.1375 43.9175C54.2664 43.7922 54.3309 43.5853 54.3309 43.297V43.1779C54.3309 42.8938 54.2539 42.689 54.1 42.5636C53.9503 42.4341 53.7049 42.3693 53.3638 42.3693H52.6651Z" fill="#F6BE23"/>
<path d="M55.5086 43.297V41.216C55.5086 40.8232 55.6146 40.5223 55.8267 40.3134C56.0389 40.1045 56.3425 40 56.7376 40C57.1327 40 57.4364 40.1045 57.6485 40.3134C57.8606 40.5223 57.9667 40.8232 57.9667 41.216V43.297C57.9667 43.6898 57.8606 43.9907 57.6485 44.1996C57.4364 44.4085 57.1327 44.513 56.7376 44.513C56.3425 44.513 56.0389 44.4085 55.8267 44.1996C55.6146 43.9907 55.5086 43.6898 55.5086 43.297ZM57.5674 43.3283V41.1847C57.5674 40.6289 57.2908 40.351 56.7376 40.351C56.1844 40.351 55.9078 40.6289 55.9078 41.1847V43.3283C55.9078 43.8841 56.1844 44.162 56.7376 44.162C57.2908 44.162 57.5674 43.8841 57.5674 43.3283Z" fill="#F6BE23"/>
<path d="M61.5288 40.0627V44.0993H61.8969V45.0395H61.4976V44.4503H58.9896V45.0395H58.584V44.0993H59.0083C59.1746 43.9405 59.2662 43.671 59.2828 43.2907L59.445 40.0627H61.5288ZM59.4263 44.0993H61.1233V40.4137H59.8193L59.6821 43.2782C59.6654 43.6417 59.5802 43.9154 59.4263 44.0993Z" fill="#F6BE23"/>
<path d="M62.5819 43.297V41.216C62.5819 40.8232 62.688 40.5223 62.9001 40.3134C63.1122 40.1045 63.4158 40 63.8109 40C64.2061 40 64.5097 40.1045 64.7218 40.3134C64.9339 40.5223 65.04 40.8232 65.04 41.216V43.297C65.04 43.6898 64.9339 43.9907 64.7218 44.1996C64.5097 44.4085 64.2061 44.513 63.8109 44.513C63.4158 44.513 63.1122 44.4085 62.9001 44.1996C62.688 43.9907 62.5819 43.6898 62.5819 43.297ZM64.6407 43.3283V41.1847C64.6407 40.6289 64.3641 40.351 63.8109 40.351C63.2578 40.351 62.9812 40.6289 62.9812 41.1847V43.3283C62.9812 43.8841 63.2578 44.162 63.8109 44.162C64.3641 44.162 64.6407 43.8841 64.6407 43.3283Z" fill="#F6BE23"/>
<path d="M66.3609 44.4503H65.9616V40.0627H67.1096C67.5255 40.0627 67.8333 40.1567 68.0329 40.3447C68.2326 40.5328 68.3324 40.8232 68.3324 41.216V41.3727C68.3324 41.7655 68.2326 42.0559 68.0329 42.244C67.8333 42.432 67.5255 42.526 67.1096 42.526H66.3609V44.4503ZM66.3609 40.4137V42.175H67.1096C67.4007 42.175 67.6108 42.1144 67.7397 41.9932C67.8686 41.8679 67.9331 41.661 67.9331 41.3727V41.216C67.9331 40.9277 67.8686 40.7229 67.7397 40.6017C67.6108 40.4764 67.4007 40.4137 67.1096 40.4137H66.3609Z" fill="#F6BE23"/>
<path d="M69.0764 43.297V41.216C69.0764 40.8232 69.1825 40.5223 69.3946 40.3134C69.6067 40.1045 69.9103 40 70.3055 40C70.7006 40 71.0042 40.1045 71.2164 40.3134C71.4285 40.5223 71.5345 40.8232 71.5345 41.216V43.297C71.5345 43.6898 71.4285 43.9907 71.2164 44.1996C71.0042 44.4085 70.7006 44.513 70.3055 44.513C69.9103 44.513 69.6067 44.4085 69.3946 44.1996C69.1825 43.9907 69.0764 43.6898 69.0764 43.297ZM71.1352 43.3283V41.1847C71.1352 40.6289 70.8587 40.351 70.3055 40.351C69.7523 40.351 69.4757 40.6289 69.4757 41.1847V43.3283C69.4757 43.8841 69.7523 44.162 70.3055 44.162C70.8587 44.162 71.1352 43.8841 71.1352 43.3283Z" fill="#F6BE23"/>
<path d="M75.0966 40.0627V44.0993H75.4647V45.0395H75.0654V44.4503H72.5574V45.0395H72.1519V44.0993H72.5761C72.7425 43.9405 72.834 43.671 72.8506 43.2907L73.0129 40.0627H75.0966ZM72.9941 44.0993H74.6911V40.4137H73.3872L73.2499 43.2782C73.2333 43.6417 73.148 43.9154 72.9941 44.0993Z" fill="#F6BE23"/>
<path d="M76.1497 43.297V41.216C76.1497 40.8232 76.2558 40.5223 76.4679 40.3134C76.68 40.1045 76.9837 40 77.3788 40C77.7739 40 78.0776 40.1045 78.2897 40.3134C78.5018 40.5223 78.6079 40.8232 78.6079 41.216V43.297C78.6079 43.6898 78.5018 43.9907 78.2897 44.1996C78.0776 44.4085 77.7739 44.513 77.3788 44.513C76.9837 44.513 76.68 44.4085 76.4679 44.1996C76.2558 43.9907 76.1497 43.6898 76.1497 43.297ZM78.2086 43.3283V41.1847C78.2086 40.6289 77.932 40.351 77.3788 40.351C76.8256 40.351 76.549 40.6289 76.549 41.1847V43.3283C76.549 43.8841 76.8256 44.162 77.3788 44.162C77.932 44.162 78.2086 43.8841 78.2086 43.3283Z" fill="#F6BE23"/>
<path d="M80.7772 44.4503H79.5295V40.0627H80.6961C81.0913 40.0627 81.3928 40.1546 81.6008 40.3385C81.8087 40.5182 81.9127 40.7814 81.9127 41.1282V41.2097C81.9127 41.7028 81.6944 42.0183 81.2576 42.1562V42.1687C81.7526 42.2899 82.0001 42.6284 82.0001 43.1842V43.297C82.0001 43.6898 81.8982 43.9802 81.6944 44.1683C81.4947 44.3563 81.189 44.4503 80.7772 44.4503ZM79.9288 40.4137V42.0183H80.6088C80.9207 42.0183 81.1474 41.9577 81.2888 41.8365C81.4344 41.7154 81.5072 41.5231 81.5072 41.2599V41.1784C81.5072 40.911 81.4406 40.7166 81.3075 40.5955C81.1786 40.4743 80.9727 40.4137 80.6899 40.4137H79.9288ZM79.9288 42.3693V44.0993H80.7772C81.0684 44.0993 81.2764 44.0387 81.4011 43.9175C81.5301 43.7922 81.5945 43.5853 81.5945 43.297V43.1779C81.5945 42.8938 81.5176 42.689 81.3637 42.5636C81.214 42.4341 80.9686 42.3693 80.6275 42.3693H79.9288Z" fill="#F6BE23"/>
<path d="M40.4418 44.513C40.2796 44.513 40.1486 44.49 40.0488 44.4441V44.0993C40.1611 44.1411 40.2838 44.162 40.4169 44.162C40.5749 44.162 40.6955 44.1327 40.7787 44.0742C40.8619 44.0116 40.9284 43.9134 40.9784 43.7796L41.1094 43.3973L39.9053 40.0627H40.3358L41.3153 42.8332L42.2324 40.0627H42.6192L41.3589 43.8298C41.2757 44.0805 41.1634 44.2581 41.022 44.3626C40.8848 44.4629 40.6914 44.513 40.4418 44.513Z" stroke="#F6BE23" stroke-width="0.296442" mask="url(#path-12-outside-1)"/>
<path d="M43.7367 44.4503H43.3374V40.0627H45.365V40.4137H43.7367V44.4503Z" stroke="#F6BE23" stroke-width="0.296442" mask="url(#path-12-outside-1)"/>
<path d="M45.489 44.4566C45.4266 44.4566 45.3746 44.4503 45.333 44.4378V44.0868C45.3663 44.0993 45.4079 44.1056 45.4578 44.1056C45.6741 44.1056 45.8279 44.0492 45.9195 43.9363C46.011 43.8235 46.0629 43.6292 46.0754 43.3534L46.2376 40.0627H48.3214V44.4503H47.9221V40.4137H46.612L46.4622 43.4098C46.4456 43.7734 46.3624 44.0387 46.2127 44.2059C46.0629 44.373 45.8217 44.4566 45.489 44.4566Z" stroke="#F6BE23" stroke-width="0.296442" mask="url(#path-12-outside-1)"/>
<path d="M51.4916 44.4503H49.3079V40.0627H51.4916V40.4137H49.7072V42.0497H51.1796V42.4007H49.7072V44.0993H51.4916V44.4503Z" stroke="#F6BE23" stroke-width="0.296442" mask="url(#path-12-outside-1)"/>
<path d="M53.5136 44.4503H52.2658V40.0627H53.4325C53.8276 40.0627 54.1291 40.1546 54.3371 40.3385C54.5451 40.5182 54.6491 40.7814 54.6491 41.1282V41.2097C54.6491 41.7028 54.4307 42.0183 53.994 42.1562V42.1687C54.4889 42.2899 54.7364 42.6284 54.7364 43.1842V43.297C54.7364 43.6898 54.6345 43.9802 54.4307 44.1683C54.2311 44.3563 53.9253 44.4503 53.5136 44.4503ZM52.6651 40.4137V42.0183H53.3451C53.6571 42.0183 53.8838 41.9577 54.0252 41.8365C54.1707 41.7154 54.2435 41.5231 54.2435 41.2599V41.1784C54.2435 40.911 54.177 40.7166 54.0439 40.5955C53.915 40.4743 53.7091 40.4137 53.4262 40.4137H52.6651ZM52.6651 42.3693V44.0993H53.5136C53.8047 44.0993 54.0127 44.0387 54.1375 43.9175C54.2664 43.7922 54.3309 43.5853 54.3309 43.297V43.1779C54.3309 42.8938 54.2539 42.689 54.1 42.5636C53.9503 42.4341 53.7049 42.3693 53.3638 42.3693H52.6651Z" stroke="#F6BE23" stroke-width="0.296442" mask="url(#path-12-outside-1)"/>
<path d="M55.5086 43.297V41.216C55.5086 40.8232 55.6146 40.5223 55.8267 40.3134C56.0389 40.1045 56.3425 40 56.7376 40C57.1327 40 57.4364 40.1045 57.6485 40.3134C57.8606 40.5223 57.9667 40.8232 57.9667 41.216V43.297C57.9667 43.6898 57.8606 43.9907 57.6485 44.1996C57.4364 44.4085 57.1327 44.513 56.7376 44.513C56.3425 44.513 56.0389 44.4085 55.8267 44.1996C55.6146 43.9907 55.5086 43.6898 55.5086 43.297ZM57.5674 43.3283V41.1847C57.5674 40.6289 57.2908 40.351 56.7376 40.351C56.1844 40.351 55.9078 40.6289 55.9078 41.1847V43.3283C55.9078 43.8841 56.1844 44.162 56.7376 44.162C57.2908 44.162 57.5674 43.8841 57.5674 43.3283Z" stroke="#F6BE23" stroke-width="0.296442" mask="url(#path-12-outside-1)"/>
<path d="M61.5288 40.0627V44.0993H61.8969V45.0395H61.4976V44.4503H58.9896V45.0395H58.584V44.0993H59.0083C59.1746 43.9405 59.2662 43.671 59.2828 43.2907L59.445 40.0627H61.5288ZM59.4263 44.0993H61.1233V40.4137H59.8193L59.6821 43.2782C59.6654 43.6417 59.5802 43.9154 59.4263 44.0993Z" stroke="#F6BE23" stroke-width="0.296442" mask="url(#path-12-outside-1)"/>
<path d="M62.5819 43.297V41.216C62.5819 40.8232 62.688 40.5223 62.9001 40.3134C63.1122 40.1045 63.4158 40 63.8109 40C64.2061 40 64.5097 40.1045 64.7218 40.3134C64.9339 40.5223 65.04 40.8232 65.04 41.216V43.297C65.04 43.6898 64.9339 43.9907 64.7218 44.1996C64.5097 44.4085 64.2061 44.513 63.8109 44.513C63.4158 44.513 63.1122 44.4085 62.9001 44.1996C62.688 43.9907 62.5819 43.6898 62.5819 43.297ZM64.6407 43.3283V41.1847C64.6407 40.6289 64.3641 40.351 63.8109 40.351C63.2578 40.351 62.9812 40.6289 62.9812 41.1847V43.3283C62.9812 43.8841 63.2578 44.162 63.8109 44.162C64.3641 44.162 64.6407 43.8841 64.6407 43.3283Z" stroke="#F6BE23" stroke-width="0.296442" mask="url(#path-12-outside-1)"/>
<path d="M66.3609 44.4503H65.9616V40.0627H67.1096C67.5255 40.0627 67.8333 40.1567 68.0329 40.3447C68.2326 40.5328 68.3324 40.8232 68.3324 41.216V41.3727C68.3324 41.7655 68.2326 42.0559 68.0329 42.244C67.8333 42.432 67.5255 42.526 67.1096 42.526H66.3609V44.4503ZM66.3609 40.4137V42.175H67.1096C67.4007 42.175 67.6108 42.1144 67.7397 41.9932C67.8686 41.8679 67.9331 41.661 67.9331 41.3727V41.216C67.9331 40.9277 67.8686 40.7229 67.7397 40.6017C67.6108 40.4764 67.4007 40.4137 67.1096 40.4137H66.3609Z" stroke="#F6BE23" stroke-width="0.296442" mask="url(#path-12-outside-1)"/>
<path d="M69.0764 43.297V41.216C69.0764 40.8232 69.1825 40.5223 69.3946 40.3134C69.6067 40.1045 69.9103 40 70.3055 40C70.7006 40 71.0042 40.1045 71.2164 40.3134C71.4285 40.5223 71.5345 40.8232 71.5345 41.216V43.297C71.5345 43.6898 71.4285 43.9907 71.2164 44.1996C71.0042 44.4085 70.7006 44.513 70.3055 44.513C69.9103 44.513 69.6067 44.4085 69.3946 44.1996C69.1825 43.9907 69.0764 43.6898 69.0764 43.297ZM71.1352 43.3283V41.1847C71.1352 40.6289 70.8587 40.351 70.3055 40.351C69.7523 40.351 69.4757 40.6289 69.4757 41.1847V43.3283C69.4757 43.8841 69.7523 44.162 70.3055 44.162C70.8587 44.162 71.1352 43.8841 71.1352 43.3283Z" stroke="#F6BE23" stroke-width="0.296442" mask="url(#path-12-outside-1)"/>
<path d="M75.0966 40.0627V44.0993H75.4647V45.0395H75.0654V44.4503H72.5574V45.0395H72.1519V44.0993H72.5761C72.7425 43.9405 72.834 43.671 72.8506 43.2907L73.0129 40.0627H75.0966ZM72.9941 44.0993H74.6911V40.4137H73.3872L73.2499 43.2782C73.2333 43.6417 73.148 43.9154 72.9941 44.0993Z" stroke="#F6BE23" stroke-width="0.296442" mask="url(#path-12-outside-1)"/>
<path d="M76.1497 43.297V41.216C76.1497 40.8232 76.2558 40.5223 76.4679 40.3134C76.68 40.1045 76.9837 40 77.3788 40C77.7739 40 78.0776 40.1045 78.2897 40.3134C78.5018 40.5223 78.6079 40.8232 78.6079 41.216V43.297C78.6079 43.6898 78.5018 43.9907 78.2897 44.1996C78.0776 44.4085 77.7739 44.513 77.3788 44.513C76.9837 44.513 76.68 44.4085 76.4679 44.1996C76.2558 43.9907 76.1497 43.6898 76.1497 43.297ZM78.2086 43.3283V41.1847C78.2086 40.6289 77.932 40.351 77.3788 40.351C76.8256 40.351 76.549 40.6289 76.549 41.1847V43.3283C76.549 43.8841 76.8256 44.162 77.3788 44.162C77.932 44.162 78.2086 43.8841 78.2086 43.3283Z" stroke="#F6BE23" stroke-width="0.296442" mask="url(#path-12-outside-1)"/>
<path d="M80.7772 44.4503H79.5295V40.0627H80.6961C81.0913 40.0627 81.3928 40.1546 81.6008 40.3385C81.8087 40.5182 81.9127 40.7814 81.9127 41.1282V41.2097C81.9127 41.7028 81.6944 42.0183 81.2576 42.1562V42.1687C81.7526 42.2899 82.0001 42.6284 82.0001 43.1842V43.297C82.0001 43.6898 81.8982 43.9802 81.6944 44.1683C81.4947 44.3563 81.189 44.4503 80.7772 44.4503ZM79.9288 40.4137V42.0183H80.6088C80.9207 42.0183 81.1474 41.9577 81.2888 41.8365C81.4344 41.7154 81.5072 41.5231 81.5072 41.2599V41.1784C81.5072 40.911 81.4406 40.7166 81.3075 40.5955C81.1786 40.4743 80.9727 40.4137 80.6899 40.4137H79.9288ZM79.9288 42.3693V44.0993H80.7772C81.0684 44.0993 81.2764 44.0387 81.4011 43.9175C81.5301 43.7922 81.5945 43.5853 81.5945 43.297V43.1779C81.5945 42.8938 81.5176 42.689 81.3637 42.5636C81.214 42.4341 80.9686 42.3693 80.6275 42.3693H79.9288Z" stroke="#F6BE23" stroke-width="0.296442" mask="url(#path-12-outside-1)"/>
<mask id="path-13-outside-2" maskUnits="userSpaceOnUse" x="6" y="39" width="32" height="7" fill="black">
<rect fill="white" x="6" y="39" width="32" height="7"/>
<path d="M7.39991 44.4503H7V40.0627H9.4557V44.4503H9.04329V40.4137H7.39991V44.4503Z"/>
<path d="M10.3821 43.297V41.216C10.3821 40.8232 10.4883 40.5223 10.7007 40.3134C10.9132 40.1045 11.2173 40 11.613 40C12.0088 40 12.3129 40.1045 12.5253 40.3134C12.7378 40.5223 12.844 40.8232 12.844 41.216V43.297C12.844 43.6898 12.7378 43.9907 12.5253 44.1996C12.3129 44.4085 12.0088 44.513 11.613 44.513C11.2173 44.513 10.9132 44.4085 10.7007 44.1996C10.4883 43.9907 10.3821 43.6898 10.3821 43.297ZM12.4441 43.3283V41.1847C12.4441 40.6289 12.1671 40.351 11.613 40.351C11.059 40.351 10.782 40.6289 10.782 41.1847V43.3283C10.782 43.8841 11.059 44.162 11.613 44.162C12.1671 44.162 12.4441 43.8841 12.4441 43.3283Z"/>
<path d="M14.8918 44.513C14.521 44.513 14.2294 44.4085 14.017 44.1996C13.8087 43.9907 13.7045 43.6961 13.7045 43.3158V41.1972C13.7045 40.8169 13.8087 40.5223 14.017 40.3134C14.2294 40.1045 14.521 40 14.8918 40C15.2792 40 15.577 40.1045 15.7853 40.3134C15.9936 40.5223 16.0978 40.8169 16.0978 41.1972V41.4855H15.7166V41.1784C15.7166 40.911 15.6437 40.7062 15.4979 40.5641C15.3563 40.422 15.1563 40.351 14.898 40.351C14.6481 40.351 14.4523 40.4241 14.3107 40.5704C14.1732 40.7125 14.1045 40.9151 14.1045 41.1784V43.3346C14.1045 43.5979 14.1732 43.8026 14.3107 43.9489C14.4523 44.091 14.6481 44.162 14.898 44.162C15.1563 44.162 15.3563 44.091 15.4979 43.9489C15.6437 43.8068 15.7166 43.602 15.7166 43.3346V42.9021H16.0978V43.3158C16.0978 43.6961 15.9936 43.9907 15.7853 44.1996C15.577 44.4085 15.2792 44.513 14.8918 44.513Z"/>
<path d="M18.1489 44.4503H17.749V40.4137H16.7055V40.0627H19.1987V40.4137H18.1489V44.4503Z"/>
<path d="M21.9662 44.4503H21.5538L21.3039 43.485H19.8229L19.5792 44.4503H19.1981L20.3041 40.0627H20.8415L21.9662 44.4503ZM20.554 40.5453L19.9104 43.1278H21.2164L20.554 40.5453Z"/>
<path d="M23.9591 44.4503H22.7094V40.0627H23.8778C24.2736 40.0627 24.5756 40.1546 24.7839 40.3385C24.9922 40.5182 25.0963 40.7814 25.0963 41.1282V41.2097C25.0963 41.7028 24.8776 42.0183 24.4402 42.1562V42.1687C24.9359 42.2899 25.1838 42.6284 25.1838 43.1842V43.297C25.1838 43.6898 25.0817 43.9802 24.8776 44.1683C24.6777 44.3563 24.3715 44.4503 23.9591 44.4503ZM23.1093 40.4137V42.0183H23.7904C24.1028 42.0183 24.3298 41.9577 24.4715 41.8365C24.6173 41.7154 24.6902 41.5231 24.6902 41.2599V41.1784C24.6902 40.911 24.6235 40.7166 24.4902 40.5955C24.3611 40.4743 24.1549 40.4137 23.8716 40.4137H23.1093ZM23.1093 42.3693V44.0993H23.9591C24.2507 44.0993 24.459 44.0387 24.5839 43.9175C24.7131 43.7922 24.7776 43.5853 24.7776 43.297V43.1779C24.7776 42.8938 24.7006 42.689 24.5464 42.5636C24.3965 42.4341 24.1507 42.3693 23.8091 42.3693H23.1093Z"/>
<path d="M30.2374 45.0395H29.8375V44.4503H26.0196V40.0627H26.4196V44.0993H27.6943V40.0627H28.1004V44.0993H29.3751V40.0627H29.775V44.0993H30.2374V45.0395Z"/>
<path d="M31.3585 43.6793L33.0581 40.0627H33.4893V44.4503H33.1081V40.8399L31.4148 44.4503H30.9836V40.0627H31.3585V43.6793Z"/>
<path d="M37.0889 44.4503H36.6452L35.5517 42.0559L34.8769 42.9585V44.4503H34.477V40.0627H34.8769V42.3944L36.6265 40.0627H37.0701L35.8329 41.7174L37.0889 44.4503Z"/>
</mask>
<path d="M7.39991 44.4503H7V40.0627H9.4557V44.4503H9.04329V40.4137H7.39991V44.4503Z" fill="#393330"/>
<path d="M10.3821 43.297V41.216C10.3821 40.8232 10.4883 40.5223 10.7007 40.3134C10.9132 40.1045 11.2173 40 11.613 40C12.0088 40 12.3129 40.1045 12.5253 40.3134C12.7378 40.5223 12.844 40.8232 12.844 41.216V43.297C12.844 43.6898 12.7378 43.9907 12.5253 44.1996C12.3129 44.4085 12.0088 44.513 11.613 44.513C11.2173 44.513 10.9132 44.4085 10.7007 44.1996C10.4883 43.9907 10.3821 43.6898 10.3821 43.297ZM12.4441 43.3283V41.1847C12.4441 40.6289 12.1671 40.351 11.613 40.351C11.059 40.351 10.782 40.6289 10.782 41.1847V43.3283C10.782 43.8841 11.059 44.162 11.613 44.162C12.1671 44.162 12.4441 43.8841 12.4441 43.3283Z" fill="#393330"/>
<path d="M14.8918 44.513C14.521 44.513 14.2294 44.4085 14.017 44.1996C13.8087 43.9907 13.7045 43.6961 13.7045 43.3158V41.1972C13.7045 40.8169 13.8087 40.5223 14.017 40.3134C14.2294 40.1045 14.521 40 14.8918 40C15.2792 40 15.577 40.1045 15.7853 40.3134C15.9936 40.5223 16.0978 40.8169 16.0978 41.1972V41.4855H15.7166V41.1784C15.7166 40.911 15.6437 40.7062 15.4979 40.5641C15.3563 40.422 15.1563 40.351 14.898 40.351C14.6481 40.351 14.4523 40.4241 14.3107 40.5704C14.1732 40.7125 14.1045 40.9151 14.1045 41.1784V43.3346C14.1045 43.5979 14.1732 43.8026 14.3107 43.9489C14.4523 44.091 14.6481 44.162 14.898 44.162C15.1563 44.162 15.3563 44.091 15.4979 43.9489C15.6437 43.8068 15.7166 43.602 15.7166 43.3346V42.9021H16.0978V43.3158C16.0978 43.6961 15.9936 43.9907 15.7853 44.1996C15.577 44.4085 15.2792 44.513 14.8918 44.513Z" fill="#393330"/>
<path d="M18.1489 44.4503H17.749V40.4137H16.7055V40.0627H19.1987V40.4137H18.1489V44.4503Z" fill="#393330"/>
<path d="M21.9662 44.4503H21.5538L21.3039 43.485H19.8229L19.5792 44.4503H19.1981L20.3041 40.0627H20.8415L21.9662 44.4503ZM20.554 40.5453L19.9104 43.1278H21.2164L20.554 40.5453Z" fill="#393330"/>
<path d="M23.9591 44.4503H22.7094V40.0627H23.8778C24.2736 40.0627 24.5756 40.1546 24.7839 40.3385C24.9922 40.5182 25.0963 40.7814 25.0963 41.1282V41.2097C25.0963 41.7028 24.8776 42.0183 24.4402 42.1562V42.1687C24.9359 42.2899 25.1838 42.6284 25.1838 43.1842V43.297C25.1838 43.6898 25.0817 43.9802 24.8776 44.1683C24.6777 44.3563 24.3715 44.4503 23.9591 44.4503ZM23.1093 40.4137V42.0183H23.7904C24.1028 42.0183 24.3298 41.9577 24.4715 41.8365C24.6173 41.7154 24.6902 41.5231 24.6902 41.2599V41.1784C24.6902 40.911 24.6235 40.7166 24.4902 40.5955C24.3611 40.4743 24.1549 40.4137 23.8716 40.4137H23.1093ZM23.1093 42.3693V44.0993H23.9591C24.2507 44.0993 24.459 44.0387 24.5839 43.9175C24.7131 43.7922 24.7776 43.5853 24.7776 43.297V43.1779C24.7776 42.8938 24.7006 42.689 24.5464 42.5636C24.3965 42.4341 24.1507 42.3693 23.8091 42.3693H23.1093Z" fill="#393330"/>
<path d="M30.2374 45.0395H29.8375V44.4503H26.0196V40.0627H26.4196V44.0993H27.6943V40.0627H28.1004V44.0993H29.3751V40.0627H29.775V44.0993H30.2374V45.0395Z" fill="#393330"/>
<path d="M31.3585 43.6793L33.0581 40.0627H33.4893V44.4503H33.1081V40.8399L31.4148 44.4503H30.9836V40.0627H31.3585V43.6793Z" fill="#393330"/>
<path d="M37.0889 44.4503H36.6452L35.5517 42.0559L34.8769 42.9585V44.4503H34.477V40.0627H34.8769V42.3944L36.6265 40.0627H37.0701L35.8329 41.7174L37.0889 44.4503Z" fill="#393330"/>
<path d="M7.39991 44.4503H7V40.0627H9.4557V44.4503H9.04329V40.4137H7.39991V44.4503Z" stroke="#393330" stroke-width="0.296442" mask="url(#path-13-outside-2)"/>
<path d="M10.3821 43.297V41.216C10.3821 40.8232 10.4883 40.5223 10.7007 40.3134C10.9132 40.1045 11.2173 40 11.613 40C12.0088 40 12.3129 40.1045 12.5253 40.3134C12.7378 40.5223 12.844 40.8232 12.844 41.216V43.297C12.844 43.6898 12.7378 43.9907 12.5253 44.1996C12.3129 44.4085 12.0088 44.513 11.613 44.513C11.2173 44.513 10.9132 44.4085 10.7007 44.1996C10.4883 43.9907 10.3821 43.6898 10.3821 43.297ZM12.4441 43.3283V41.1847C12.4441 40.6289 12.1671 40.351 11.613 40.351C11.059 40.351 10.782 40.6289 10.782 41.1847V43.3283C10.782 43.8841 11.059 44.162 11.613 44.162C12.1671 44.162 12.4441 43.8841 12.4441 43.3283Z" stroke="#393330" stroke-width="0.296442" mask="url(#path-13-outside-2)"/>
<path d="M14.8918 44.513C14.521 44.513 14.2294 44.4085 14.017 44.1996C13.8087 43.9907 13.7045 43.6961 13.7045 43.3158V41.1972C13.7045 40.8169 13.8087 40.5223 14.017 40.3134C14.2294 40.1045 14.521 40 14.8918 40C15.2792 40 15.577 40.1045 15.7853 40.3134C15.9936 40.5223 16.0978 40.8169 16.0978 41.1972V41.4855H15.7166V41.1784C15.7166 40.911 15.6437 40.7062 15.4979 40.5641C15.3563 40.422 15.1563 40.351 14.898 40.351C14.6481 40.351 14.4523 40.4241 14.3107 40.5704C14.1732 40.7125 14.1045 40.9151 14.1045 41.1784V43.3346C14.1045 43.5979 14.1732 43.8026 14.3107 43.9489C14.4523 44.091 14.6481 44.162 14.898 44.162C15.1563 44.162 15.3563 44.091 15.4979 43.9489C15.6437 43.8068 15.7166 43.602 15.7166 43.3346V42.9021H16.0978V43.3158C16.0978 43.6961 15.9936 43.9907 15.7853 44.1996C15.577 44.4085 15.2792 44.513 14.8918 44.513Z" stroke="#393330" stroke-width="0.296442" mask="url(#path-13-outside-2)"/>
<path d="M18.1489 44.4503H17.749V40.4137H16.7055V40.0627H19.1987V40.4137H18.1489V44.4503Z" stroke="#393330" stroke-width="0.296442" mask="url(#path-13-outside-2)"/>
<path d="M21.9662 44.4503H21.5538L21.3039 43.485H19.8229L19.5792 44.4503H19.1981L20.3041 40.0627H20.8415L21.9662 44.4503ZM20.554 40.5453L19.9104 43.1278H21.2164L20.554 40.5453Z" stroke="#393330" stroke-width="0.296442" mask="url(#path-13-outside-2)"/>
<path d="M23.9591 44.4503H22.7094V40.0627H23.8778C24.2736 40.0627 24.5756 40.1546 24.7839 40.3385C24.9922 40.5182 25.0963 40.7814 25.0963 41.1282V41.2097C25.0963 41.7028 24.8776 42.0183 24.4402 42.1562V42.1687C24.9359 42.2899 25.1838 42.6284 25.1838 43.1842V43.297C25.1838 43.6898 25.0817 43.9802 24.8776 44.1683C24.6777 44.3563 24.3715 44.4503 23.9591 44.4503ZM23.1093 40.4137V42.0183H23.7904C24.1028 42.0183 24.3298 41.9577 24.4715 41.8365C24.6173 41.7154 24.6902 41.5231 24.6902 41.2599V41.1784C24.6902 40.911 24.6235 40.7166 24.4902 40.5955C24.3611 40.4743 24.1549 40.4137 23.8716 40.4137H23.1093ZM23.1093 42.3693V44.0993H23.9591C24.2507 44.0993 24.459 44.0387 24.5839 43.9175C24.7131 43.7922 24.7776 43.5853 24.7776 43.297V43.1779C24.7776 42.8938 24.7006 42.689 24.5464 42.5636C24.3965 42.4341 24.1507 42.3693 23.8091 42.3693H23.1093Z" stroke="#393330" stroke-width="0.296442" mask="url(#path-13-outside-2)"/>
<path d="M30.2374 45.0395H29.8375V44.4503H26.0196V40.0627H26.4196V44.0993H27.6943V40.0627H28.1004V44.0993H29.3751V40.0627H29.775V44.0993H30.2374V45.0395Z" stroke="#393330" stroke-width="0.296442" mask="url(#path-13-outside-2)"/>
<path d="M31.3585 43.6793L33.0581 40.0627H33.4893V44.4503H33.1081V40.8399L31.4148 44.4503H30.9836V40.0627H31.3585V43.6793Z" stroke="#393330" stroke-width="0.296442" mask="url(#path-13-outside-2)"/>
<path d="M37.0889 44.4503H36.6452L35.5517 42.0559L34.8769 42.9585V44.4503H34.477V40.0627H34.8769V42.3944L36.6265 40.0627H37.0701L35.8329 41.7174L37.0889 44.4503Z" stroke="#393330" stroke-width="0.296442" mask="url(#path-13-outside-2)"/>
</g>
<defs>
<clipPath id="clip0">
<rect width="147" height="45" fill="white"/>
</clipPath>
</defs>
</svg>
