<svg width="19" height="19" viewBox="0 0 19 19" fill="none" xmlns="http://www.w3.org/2000/svg">
<path d="M7.125 8.90625H3.62781C3.73816 8.17139 4.00056 7.46762 4.39826 6.8399C4.79595 6.21218 5.32019 5.6743 5.9375 5.26062L7.00031 4.54812L6.34719 3.5625L5.28437 4.275C4.38976 4.87117 3.65614 5.67896 3.14862 6.62668C2.64109 7.5744 2.37536 8.63275 2.375 9.70781V13.6562C2.375 13.9712 2.50011 14.2732 2.72281 14.4959C2.94551 14.7186 3.24756 14.8438 3.5625 14.8438H7.125C7.43994 14.8438 7.74199 14.7186 7.96469 14.4959C8.18739 14.2732 8.3125 13.9712 8.3125 13.6562V10.0938C8.3125 9.77881 8.18739 9.47676 7.96469 9.25406C7.74199 9.03136 7.43994 8.90625 7.125 8.90625Z" fill="#393330"/>
<path d="M15.4375 8.90625H11.9403C12.0507 8.17139 12.3131 7.46762 12.7108 6.8399C13.1084 6.21218 13.6327 5.6743 14.25 5.26062L15.3128 4.54812L14.6656 3.5625L13.5969 4.275C12.7023 4.87117 11.9686 5.67896 11.4611 6.62668C10.9536 7.5744 10.6879 8.63275 10.6875 9.70781V13.6562C10.6875 13.9712 10.8126 14.2732 11.0353 14.4959C11.258 14.7186 11.5601 14.8438 11.875 14.8438H15.4375C15.7524 14.8438 16.0545 14.7186 16.2772 14.4959C16.4999 14.2732 16.625 13.9712 16.625 13.6562V10.0938C16.625 9.77881 16.4999 9.47676 16.2772 9.25406C16.0545 9.03136 15.7524 8.90625 15.4375 8.90625Z" fill="#393330"/>
</svg>
