<svg width="50" height="50" viewBox="0 0 50 50" fill="none" xmlns="http://www.w3.org/2000/svg">
<path d="M32.5 4.5H16.5L10.5 10.5V39.5L16.5 45.5H32.5L38.5 39.5V10.5L32.5 4.5Z" fill="#F3F1EB"/>
<path d="M39 10.4347V10.3848C39 10.3848 39 10.3349 38.9507 10.3349C38.9507 10.285 38.9014 10.285 38.9014 10.2352L32.835 4.09976C32.7857 4.04988 32.6871 4 32.5884 4H16.4116C16.3129 4 16.2143 4.04988 16.165 4.09976L10.0986 10.2352C10.0986 10.2352 10.0493 10.285 10.0493 10.3349C10.0493 10.3349 10.0493 10.3848 10 10.3848V10.4347V10.4846V39.4656C10 39.5154 10 39.5154 10 39.5653V39.6152C10 39.6651 10.0493 39.715 10.0493 39.715L16.1156 45.8504C16.165 45.9002 16.2143 45.9002 16.2143 45.9501C16.2636 45.9501 16.3129 46 16.3622 46H32.4898C32.5391 46 32.5884 46 32.6378 45.9501C32.6871 45.9501 32.7364 45.9002 32.7364 45.8504L38.8027 39.715C38.852 39.6651 38.852 39.6651 38.852 39.6152V39.5653V39.5154V10.4846C39 10.4846 39 10.4347 39 10.4347ZM32.6871 5.04751L37.9643 10.3848L32.6378 12.6295L30.4677 10.4347L32.6871 5.04751ZM24.0561 25L16.8061 35.7245V14.2755L24.0561 25ZM16.9048 13.0784L19.0748 10.8836H29.8759L32.0459 13.0784L24.5 24.3017L16.9048 13.0784ZM24.5 25.6485L32.0952 36.8717L29.9252 39.0665H19.1242L16.9048 36.8717L24.5 25.6485ZM24.9439 25L32.1939 14.2755V35.7245L24.9439 25ZM31.9966 4.74822L29.7772 10.1354H19.1735L17.0034 4.74822H31.9966ZM16.3129 5.04751L18.5323 10.4347L16.3622 12.6295L11.0357 10.3848L16.3129 5.04751ZM10.7398 11.0831L16.0663 13.3278V24.6508H10.7398V11.0831ZM10.7398 25.3492H16.0663V36.6722L10.7398 38.9169V25.3492ZM16.3129 44.9525L11.0357 39.6152L16.3622 37.3705L18.5323 39.5653L16.3129 44.9525ZM17.0034 45.2518L19.2228 39.8646H29.8265L32.0459 45.2518H17.0034ZM32.6871 44.9525L30.4677 39.5653L32.6378 37.3705L37.9643 39.6152L32.6871 44.9525ZM38.2602 38.9169L32.9337 36.6722V25.3492H38.2602V38.9169ZM38.2602 24.601H32.9337V13.2779L38.2602 11.0333V24.601Z" fill="#393330"/>
</svg>
