<svg width="50" height="50" viewBox="0 0 50 50" fill="none" xmlns="http://www.w3.org/2000/svg">
<g clip-path="url(#clip0)">
<path d="M38 31.5C38 38.9558 31.9558 45 24.5 45C17.0442 45 11 38.9558 11 31.5C11 19.5 24.5 5.5 24.5 5.5C24.5 5.5 38 19 38 31.5Z" fill="#F3F1EB"/>
<path d="M37.9999 31.5815C37.9999 29.0256 37.5285 26.3419 36.5427 23.4878C36.157 22.3802 35.7285 21.2726 35.2142 20.1651C34.6999 19.0575 34.1427 17.9925 33.5427 16.885C33.5427 16.8424 33.4999 16.7998 33.457 16.7572C32.4713 15.0532 31.3142 13.3919 30.0285 11.7732L24.757 5.1278C24.7142 5.0426 24.5856 5 24.4999 5C24.4142 5 24.2856 5.0426 24.2427 5.1278L18.9285 11.8158C17.6427 13.4345 16.4856 15.0958 15.4999 16.7998C15.457 16.8424 15.4142 16.885 15.4142 16.9276C14.7713 17.9925 14.2142 19.1001 13.7427 20.2077C13.2285 21.3152 12.7999 22.4654 12.4142 23.5304C11.4713 26.3419 10.957 29.0682 10.957 31.6241V31.7093C10.957 32.9446 11.1285 34.2226 11.5142 35.4153C12.0713 37.2471 12.9713 38.951 14.257 40.3994C15.6285 41.9755 17.3427 43.2109 19.2713 44.0202C20.8999 44.7018 22.657 45.0426 24.4142 45.0426C26.1713 45.0426 27.9285 44.7018 29.5999 44.0202C31.5285 43.2109 33.2427 41.9755 34.6142 40.3994C35.8999 38.9084 36.8427 37.2471 37.357 35.4153C37.6999 34.2226 37.8713 32.9872 37.9142 31.7093L37.9999 31.5815ZM24.8427 6.23536L29.557 12.1991C30.7999 13.7753 31.9142 15.3514 32.857 17.0128L27.9713 22.934L24.8427 21.9116V6.23536V6.23536ZM19.4427 12.1991L24.157 6.23536V21.9116L21.0285 22.934L16.1427 17.0128C17.1285 15.3514 18.1999 13.7753 19.4427 12.1991ZM13.057 23.7433C13.3999 22.6784 13.8713 21.5708 14.3427 20.4633C14.7713 19.4835 15.2856 18.5463 15.7999 17.6092L20.5142 23.36L17.3856 29.7497L11.6427 31.2833C11.6856 28.8978 12.157 26.3419 13.057 23.7433ZM14.557 39.6752C13.4427 38.3546 12.6285 36.8211 12.157 35.1597C11.857 34.0948 11.6856 32.9872 11.6427 31.8797L17.4285 30.3887L19.0999 35.2449L14.557 39.6752ZM14.9856 40.1864L19.5285 35.6709L23.9856 37.9287L19.357 43.2961C17.7285 42.5719 16.2285 41.5069 14.9856 40.1864ZM24.157 44.361C22.7427 44.3184 21.3285 44.0628 19.957 43.5517L21.3285 41.9329L24.1142 38.6954V44.361H24.157ZM19.6999 35.0745L17.9427 30.0053L21.1142 23.573L24.457 22.508L27.7999 23.573L30.9713 30.0053L29.2142 35.0745L24.4142 37.4601L19.6999 35.0745ZM24.8427 44.361V38.6954L27.2427 41.4643L29.0427 43.5517C27.6713 44.0628 26.257 44.3184 24.8427 44.361ZM29.6427 43.2961L28.1856 41.5921L25.0142 37.9287L29.4713 35.6709L34.0142 40.1864C32.7713 41.5069 31.2713 42.5719 29.6427 43.2961ZM36.8427 35.2023C36.3713 36.8637 35.557 38.3546 34.4427 39.7178L29.8999 35.2023L31.5713 30.3887L37.3142 31.9649C37.3142 33.0298 37.1427 34.1374 36.8427 35.2023ZM31.6142 29.7071L28.4856 23.3174L33.1999 17.5666C33.7142 18.5037 34.2285 19.4835 34.657 20.4207C35.1713 21.5282 35.5999 22.6358 35.9427 23.7007C36.8427 26.3419 37.3142 28.8552 37.357 31.2407L31.6142 29.7071Z" fill="#393330"/>
</g>
<defs>
<clipPath id="clip0">
<rect width="27" height="40" fill="white" transform="translate(11 5)"/>
</clipPath>
</defs>
</svg>
