<svg width="11" height="11" viewBox="0 0 11 11" fill="none" xmlns="http://www.w3.org/2000/svg">
<path d="M5.52481 10.916C8.49747 10.916 10.916 8.4861 10.916 5.49935C10.916 2.5126 8.4861 0.0826814 5.49935 0.0826812C2.5126 0.0826809 0.0826814 2.5126 0.0826812 5.49935C0.0826809 8.4861 2.52397 10.916 5.52481 10.916ZM4.95768 2.79102L6.04102 2.79102L6.04102 3.87435L4.95768 3.87435L4.95768 2.79102ZM4.95768 4.95768L6.04102 4.95768L6.04101 8.20768L4.95768 8.20768L4.95768 4.95768Z" fill="#393330"/>
</svg>
