<svg width="140" height="140" viewBox="0 0 140 140" fill="none" xmlns="http://www.w3.org/2000/svg">
<g clip-path="url(#clip0)">
<path d="M61.5714 35.1835L60.472 34.084L60.1055 35.55C60.1055 35.55 60.472 35.9164 60.8385 35.9164C61.2049 35.9164 61.5714 35.1835 61.5714 35.1835Z" fill="#C19B76"/>
<path d="M52.4081 39.5815L52.7746 38.8485L51.3086 37.749V39.215C51.6751 39.5815 52.4081 39.5815 52.4081 39.5815Z" fill="#C19B76"/>
<path d="M39.5832 52.4088V51.6758H38.1172L39.2167 52.7753C38.8502 52.7753 39.2167 52.7753 39.5832 52.4088Z" fill="#C19B76"/>
<path d="M35.5519 60.1045L34.0859 60.471L35.1854 61.5705L35.9184 61.204C35.9184 60.8375 35.5519 60.1045 35.5519 60.1045Z" fill="#C19B76"/>
<path d="M35.1854 78.7959L34.0859 79.8954L35.5519 80.2619C35.5519 80.2619 35.9184 79.8954 35.9184 79.5289C35.9184 79.1624 35.1854 78.7959 35.1854 78.7959Z" fill="#C19B76"/>
<path d="M39.5844 87.5921L38.8514 87.2256L37.752 88.3251H39.2179C39.2179 88.6916 39.5844 87.9586 39.5844 87.5921Z" fill="#C19B76"/>
<path d="M51.6738 100.785V102.251L52.7733 101.152C52.7733 101.152 52.7733 100.419 52.4068 100.419L51.6738 100.785Z" fill="#C19B76"/>
<path d="M60.8385 104.083C60.472 104.083 60.1055 104.449 60.1055 104.449L60.472 105.915L61.5714 104.816C61.5714 104.816 61.2049 104.083 60.8385 104.083Z" fill="#C19B76"/>
<path d="M78.7949 104.816L79.8944 105.915L80.2609 104.449C80.2609 104.449 79.8944 104.083 79.5279 104.083C79.1614 104.083 78.7949 104.816 78.7949 104.816Z" fill="#C19B76"/>
<path d="M87.5931 100.785L87.2266 101.518L88.326 102.617V101.151C88.6925 100.785 87.9596 100.418 87.5931 100.785Z" fill="#C19B76"/>
<path d="M100.785 87.5921V88.3251H102.251L101.152 87.2256C101.518 87.5921 100.785 87.5921 100.785 87.5921Z" fill="#C19B76"/>
<path d="M104.817 78.7959L104.084 79.1624C104.084 79.5289 104.45 79.8954 104.45 79.8954L105.916 79.5289L104.817 78.7959Z" fill="#C19B76"/>
<path d="M104.817 61.5705L105.916 60.471L104.45 60.1045C104.45 60.1045 104.084 60.471 104.084 60.8375C104.084 61.204 104.817 61.5705 104.817 61.5705Z" fill="#C19B76"/>
<path d="M100.787 52.4088L101.52 52.7753L102.619 51.6758H101.153C100.787 51.6758 100.42 52.4088 100.787 52.4088Z" fill="#C19B76"/>
<path d="M88.6932 39.5812V38.1152L87.5938 39.2147C87.5938 39.2147 87.5938 39.9477 87.9602 39.9477C87.9602 39.5812 88.6932 39.5812 88.6932 39.5812Z" fill="#C19B76"/>
<path d="M79.1627 35.9164C79.5292 35.9164 79.8957 35.55 79.8957 35.55L79.5292 34.084L78.4297 35.1835C78.7962 35.1835 79.1627 35.9164 79.1627 35.9164Z" fill="#C19B76"/>
<path d="M118.009 71.0997L124.972 70.3668V70.0003V69.6338L118.009 68.9008C118.009 65.2359 117.276 61.5709 116.543 57.906L138.166 52.0421V51.6757L116.543 57.5395C115.443 53.5081 113.977 49.8432 111.778 46.5448L130.836 35.55C130.836 35.55 130.836 35.1835 130.469 35.1835L111.412 46.1783C109.213 42.8798 107.014 39.5814 104.082 36.6495L119.841 20.8903L119.475 20.5238L103.716 36.283C100.784 33.351 97.4852 30.7856 94.1868 28.9531L105.182 9.89555C105.182 9.89555 104.815 9.89555 104.815 9.52906L93.8203 28.5867C90.1554 26.7542 86.4904 24.9217 82.8255 23.8223L88.6894 2.19922H88.3229L82.459 23.8223C78.7941 22.7228 75.1292 22.3563 71.4643 22.3563L70.7313 15.3929H70.3648H69.9983L69.2653 22.3563C65.6004 22.3563 61.569 23.0893 58.2706 23.8223L52.4067 2.56571H52.0402L57.9041 23.8223C53.8727 24.9217 50.2077 26.3877 46.9093 28.5867L35.9145 9.52906C35.9145 9.52906 35.548 9.52906 35.548 9.89555L46.5428 28.9531C43.2444 31.1521 39.946 33.351 37.014 36.283L20.5219 20.5238L20.1554 20.8903L35.9145 36.6495C32.9826 39.5814 30.4172 42.8798 28.5847 46.1783L9.52711 35.1835C9.52711 35.1835 9.52711 35.55 9.16062 35.55L28.2182 46.5448C26.3857 50.2097 24.5533 53.8746 23.4538 57.5395L2.19727 51.6757V52.0421L23.4538 57.906C22.3543 61.5709 21.9878 65.2359 21.9878 68.9008L15.0245 69.6338V70.0003V70.3668L21.9878 71.0997C21.9878 74.7647 22.7208 78.7961 23.4538 82.0945L2.19727 87.9584V88.3249L23.4538 82.461C24.5533 86.4924 26.0193 90.1573 28.2182 93.4557L9.16062 104.451C9.16062 104.451 9.16061 104.817 9.52711 104.817L28.5847 93.8222C30.7837 97.1207 32.9826 100.419 35.9145 103.351L20.1554 119.11L20.5219 119.477L36.281 103.718C39.213 106.649 42.5114 109.215 45.8098 111.047L34.8151 130.105C34.8151 130.105 35.1816 130.105 35.1816 130.471L46.1763 111.414C49.8412 113.246 53.5062 115.079 57.1711 116.178L51.3072 137.435H51.6737L57.5376 116.178C61.2025 117.278 64.8674 117.644 68.5323 117.644L69.2653 123.875V124.608H69.6318L70.3648 117.644C74.0297 117.644 78.0611 116.911 81.3596 116.178L87.2234 137.435H87.5899L81.7261 116.178C85.7575 115.079 89.4224 113.613 92.7208 111.414L103.716 130.471C103.716 130.471 104.082 130.471 104.082 130.105L93.0873 111.047C96.3857 108.848 99.6842 106.649 102.616 103.718L118.375 119.477L118.742 119.11L102.983 103.351C105.915 100.419 108.48 97.1207 110.312 93.8222L129.37 104.817C129.37 104.817 129.37 104.451 129.737 104.451L110.679 93.4557C112.511 89.7908 114.344 86.1259 115.443 82.461L137.066 88.3249V87.9584L115.443 82.0945C117.276 78.7961 118.009 75.1311 118.009 71.0997ZM68.8988 22.3563L67.4329 35.9165C59.7365 36.6495 52.4067 39.5814 46.9093 45.0788L39.9459 39.5814L45.4433 46.5448C40.3124 52.0421 37.014 59.372 36.281 67.0683L22.7208 68.5343C23.0873 43.6128 43.2444 23.0893 68.8988 22.3563ZM48.0088 57.173L40.6789 53.1416C41.7784 50.9427 43.2444 49.1102 45.0768 47.2777L50.2077 53.8746C49.4747 54.9741 48.7418 56.0736 48.0088 57.173ZM50.5742 54.2411L50.9407 54.9741C49.4747 56.44 48.3753 58.2725 47.6423 60.105H46.9093C48.0088 57.5395 49.1083 55.7071 50.5742 54.2411ZM48.0088 57.5395C47.6423 58.2725 47.2758 59.0055 46.9093 59.7385L42.1449 58.639L46.5428 61.2044C46.1763 61.9374 46.1763 62.6704 45.8098 63.4034L37.747 61.2044C38.48 58.639 39.5795 55.7071 41.0454 53.5081L48.0088 57.5395ZM45.4433 63.7699C45.0768 64.5029 45.0768 65.6024 45.0768 66.3353L36.6475 67.4348C36.6475 65.6023 37.014 63.4034 37.747 61.5709L45.4433 63.7699ZM46.5428 61.2044L47.2758 61.5709C46.9093 63.0369 46.1763 64.5029 46.1763 65.9688H45.4433C45.4433 64.5029 45.8098 62.6704 46.5428 61.2044ZM47.6423 61.9374L53.1397 65.2359L46.5428 65.9688C46.9093 64.5029 47.2758 63.4034 47.6423 61.9374ZM48.3753 60.105C49.1083 58.2725 50.2077 56.8065 51.3072 55.3406L56.8046 62.3039L48.3753 60.105ZM41.7784 42.1469L63.4014 63.7699L59.0035 64.1364L57.5376 62.3039L41.7784 42.1469ZM42.1449 41.7804L62.302 57.5395L64.5009 59.372L64.1344 63.7699L42.1449 41.7804ZM60.103 48.3772L62.302 56.8065L54.9721 51.3092C56.4381 50.2097 58.2706 49.1102 60.103 48.3772ZM54.6056 51.3092L53.8727 50.9427C55.7051 49.4767 57.5376 48.3772 59.37 47.2777V48.0107C57.9041 48.7437 56.4381 49.8432 54.6056 51.3092ZM58.2706 41.7804L59.37 46.5448C58.6371 46.9113 57.9041 47.2777 57.1711 47.6442L53.1397 40.3144C55.7051 38.8484 58.2706 37.749 60.836 37.016L63.035 45.0788C62.302 45.4453 61.569 45.4453 60.836 45.8118L58.2706 41.7804ZM57.1711 48.0107C56.0716 48.7437 54.9721 49.4767 53.8727 50.2097L47.2758 45.0788C49.1083 43.2463 50.9407 41.7804 53.1397 40.6809L57.1711 48.0107ZM61.9355 47.6442C63.4014 47.2777 64.5009 46.9113 65.9669 46.5448L65.2339 53.1416L61.9355 47.6442ZM61.569 47.2777L61.2025 46.5448C62.6685 45.8118 64.5009 45.4453 65.9669 45.0788V45.8118C64.5009 46.1783 63.035 46.5448 61.569 47.2777ZM63.7679 45.4453L61.569 37.3825C63.4014 37.016 65.2339 36.6495 67.4329 36.283L66.3334 44.7123C65.2339 45.0788 64.5009 45.0788 63.7679 45.4453ZM60.4695 64.8694L51.6737 65.9688L64.5009 64.5029L64.8674 64.8694L47.6423 66.3353L64.8674 65.2359L65.2339 65.6023L43.9774 67.0683L65.6004 65.9688L65.9669 66.3353L40.3124 67.4348L66.3334 66.7018L66.6999 67.0683L36.6475 67.8013L67.0664 67.0683L67.4329 67.4348L32.9826 68.1678L67.7994 67.8013L68.1658 68.1678L28.9512 68.9008L68.1658 68.5343L68.5323 68.9008L25.2863 69.2673H68.8988L69.6318 70.0003H19.7889L60.4695 64.8694ZM19.7889 70.3668H69.6318L64.1344 75.8641L19.7889 70.3668ZM59.7365 92.3563V93.0893C57.9041 92.3563 55.7051 90.8903 54.2391 89.4243L54.9721 89.0578C56.4381 90.1573 57.9041 91.2568 59.7365 92.3563ZM54.9721 88.6914L61.9355 83.194L60.103 91.6233C58.2706 90.8903 56.4381 89.7908 54.9721 88.6914ZM57.1711 91.9898L53.1397 99.3196C50.9407 98.2202 49.1083 96.7542 47.2758 94.9217L53.8727 89.7908C54.9721 90.5238 56.0716 91.2568 57.1711 91.9898ZM57.5376 92.3563C58.2706 92.7228 59.0035 93.0893 59.7365 93.4557L58.637 98.2201L61.2025 93.8222C61.9355 94.1887 62.6685 94.1887 63.4014 94.5552L61.2025 102.618C58.6371 101.885 55.7051 100.786 53.5062 99.3196L57.5376 92.3563ZM63.7679 94.9217C64.5009 95.2882 65.6004 95.2882 66.3334 95.2882L67.4329 103.718C65.6004 103.718 63.4014 103.351 61.569 102.618L63.7679 94.9217ZM61.2025 93.4557L61.569 92.7228C63.035 93.0893 64.5009 93.8222 65.9669 93.8222V94.5552C64.5009 94.5552 62.6685 94.1887 61.2025 93.4557ZM61.9355 92.7228L65.2339 87.2254L65.9669 93.8222C64.5009 93.4557 63.4014 93.0893 61.9355 92.7228ZM62.302 82.461L42.1449 98.2201L63.7679 76.5971L64.1344 80.995L62.302 82.461ZM48.3753 80.262L56.8046 78.0631L51.3072 85.0264C50.2077 83.5605 49.1083 82.0945 48.3753 80.262ZM51.3072 85.3929L50.9407 86.1259C49.4747 84.2934 48.3753 82.461 47.2758 80.6285H48.0088C48.7418 82.0945 49.8412 83.927 51.3072 85.3929ZM47.6423 78.4296C47.2758 76.9636 46.9093 75.8641 46.5428 74.3982L53.1397 75.1311L47.6423 78.4296ZM47.2758 78.4296L46.5428 78.7961C45.8098 77.3301 45.4433 75.4976 45.0768 74.0317H45.8098C46.1763 75.4976 46.5428 76.9636 47.2758 78.4296ZM45.4433 76.5971L37.3805 78.7961C37.014 76.9636 36.6475 75.1311 36.281 72.9322L44.7103 74.0317C45.0768 74.7647 45.0768 75.4976 45.4433 76.5971ZM45.4433 76.9636C45.8098 77.6966 45.8098 78.4296 46.1763 79.1626L41.7784 81.728L46.5428 80.6285C46.9093 81.3615 47.2758 82.0945 47.6423 82.8275L40.3124 86.8589C38.8465 84.2934 37.747 81.728 37.014 79.1626L45.4433 76.9636ZM48.0088 83.194C48.7418 84.2934 49.4747 85.3929 50.2077 86.4924L45.0768 93.0893C43.2444 91.2568 41.7784 89.4243 40.6789 87.2254L48.0088 83.194ZM57.5376 77.6966L59.37 75.4976L63.7679 75.8641L42.1449 97.4872L57.5376 77.6966ZM22.3543 71.0997L35.9145 72.5657C36.6475 80.262 39.5795 87.5919 45.0768 93.0893L39.5795 100.053L46.5428 94.5552C52.0402 99.6861 59.37 102.985 67.0664 103.718L68.5323 117.278C43.6109 116.911 23.0873 96.7542 22.3543 71.0997ZM69.6318 120.943L64.1344 76.2306L65.6004 88.6914L64.1344 75.8641L64.5009 75.4976L65.9669 92.3563L64.8674 75.1311L65.2339 74.7647L66.6999 96.0212L65.9669 74.3982L66.3334 74.0317L67.4329 99.6861L66.6999 73.6652L67.0664 73.2987L68.1658 103.351L67.0664 73.2987L67.4329 72.9322L68.1658 107.382L67.7994 72.5657L68.1658 72.1992L68.8988 111.047L68.5323 71.8327L68.8988 71.4662L69.6318 114.712V71.0997L70.3648 70.3668V120.943H69.6318ZM69.6318 69.2673L64.1344 63.7699L69.6318 19.7908V69.2673ZM76.2287 75.8641L88.6894 74.3982L75.8622 75.8641L75.4957 75.4976L92.3543 74.0317L75.1292 75.1311L74.7627 74.7647L96.0192 73.2987L74.3962 74.3982L74.0297 74.0317L99.6842 72.9322L73.6632 73.6652V73.2987L103.716 72.1992L73.2967 72.9322L72.9302 72.5657L107.38 71.8327L72.5637 72.1992L72.1973 71.8327L111.045 71.0997L71.8308 71.4662L71.4643 71.0997L114.71 70.3668H71.0978L70.3648 69.6338H120.208L76.2287 75.8641ZM80.2601 91.6233L78.0611 83.194L85.0245 88.6914C83.5585 89.7908 81.7261 90.8903 80.2601 91.6233ZM85.391 89.0578L86.124 89.4243C84.2915 90.8903 82.459 91.9898 80.6266 93.0893V92.3563C82.0925 91.2568 83.925 90.1573 85.391 89.0578ZM78.4276 92.7228C76.9617 93.0893 75.8622 93.4557 74.3962 93.8222L75.1292 87.2254L78.4276 92.7228ZM78.4276 93.0893L78.7941 93.8222C77.3281 94.5552 75.4957 94.9217 74.0297 95.2882V94.5552C75.4957 93.8222 76.9617 93.4557 78.4276 93.0893ZM76.5952 94.9217L78.7941 102.985C76.9617 103.351 75.1292 103.718 72.9302 104.084L74.0297 95.6547C74.7627 95.2882 75.4957 94.9217 76.5952 94.9217ZM76.9617 94.5552C77.6946 94.1887 78.4276 94.1887 79.1606 93.8222L81.7261 98.2201L80.6266 93.4557C81.3596 93.0893 82.0925 92.7228 82.8255 92.3563L86.8569 99.6861C84.2915 101.152 81.7261 102.252 79.1606 102.985L76.9617 94.5552ZM83.192 91.9898C84.2915 91.2568 85.391 90.5238 86.4904 89.7908L93.0873 94.9217C91.2548 96.7542 89.4224 98.2202 87.2234 99.3196L83.192 91.9898ZM77.6946 82.461L75.4957 80.6285L75.8622 76.2306L97.4852 97.8537L77.6946 82.461ZM76.5952 76.2306L80.9931 75.8641L82.8255 78.0631L98.5847 98.2201L76.5952 76.2306ZM92.3543 78.4296L86.8569 75.1311L93.4538 74.3982C93.4538 75.4976 93.0873 76.9636 92.3543 78.4296ZM94.1868 74.0317H94.9198C94.5533 75.8641 94.1868 77.3301 93.4538 78.7961L92.7208 78.4296C93.4538 76.9636 93.8203 75.4976 94.1868 74.0317ZM93.0873 80.6285C92.3543 82.461 90.8884 84.6599 89.4224 86.1259L89.0559 85.3929C90.5219 83.927 91.6213 82.0945 92.3543 80.262L93.0873 80.6285ZM91.6213 80.262C90.8884 82.0945 89.7889 83.5605 88.6894 85.0264L83.192 78.0631L91.6213 80.262ZM89.7889 86.4924C90.5219 85.3929 91.6213 84.2934 91.9878 83.194L99.3177 87.2254C98.2182 89.4243 96.7522 91.2568 94.9198 93.0893L89.7889 86.4924ZM92.3543 82.8275C92.7208 82.0945 93.0873 81.3615 93.4538 80.6285L98.2182 81.728L93.8203 79.1626C94.1868 78.4296 94.1868 77.6966 94.5533 76.9636L102.616 79.1626C101.883 81.728 100.784 84.6599 99.3177 86.8589L92.3543 82.8275ZM94.9198 76.5971C95.2863 75.8641 95.2863 74.7647 95.2863 74.0317L103.716 72.9322C103.716 74.7647 103.349 76.9636 102.616 78.7961L94.9198 76.5971ZM120.574 70.0003H70.7313L76.2287 64.5029L120.574 70.0003ZM80.2601 48.0107V47.2777C82.0925 48.0107 84.2915 49.4767 85.7575 50.9427L85.391 51.3092C83.925 49.8432 82.0925 48.7437 80.2601 48.0107ZM85.0245 51.3092L78.0611 56.8065L80.2601 48.3772C81.7261 49.1102 83.5585 50.2097 85.0245 51.3092ZM83.192 48.0107L87.2234 40.6809C89.4224 41.7804 91.2548 43.2463 93.0873 45.0788L86.4904 50.2097C85.391 49.4767 84.2915 48.7437 83.192 48.0107ZM82.8255 48.0107C82.0925 47.6442 81.3596 47.2777 80.6266 46.9113L81.7261 42.1469L79.1606 46.5448C78.4276 46.1783 77.6946 46.1783 76.9617 45.8118L79.1606 37.749C81.7261 38.4819 84.658 39.5814 86.8569 41.0474L82.8255 48.0107ZM76.5952 45.4453C75.8622 45.0788 74.7627 45.0788 74.0297 45.0788L72.9302 36.6495C74.7627 36.6495 76.9617 37.016 78.7941 37.749L76.5952 45.4453ZM78.7941 46.5448L78.4276 47.2777C76.9617 46.9113 75.4957 46.1783 74.0297 46.1783V45.4453C75.4957 45.4453 77.3281 45.8118 78.7941 46.5448ZM78.4276 47.6442L75.1292 53.1416L74.3962 46.5448C75.4957 46.9113 76.9617 47.2777 78.4276 47.6442ZM77.6946 57.5395L97.8517 41.7804L76.2287 63.4034L75.8622 59.0055L77.6946 57.5395ZM91.6213 60.105L83.192 62.3039L88.6894 55.3406C89.7889 56.4401 90.8884 58.2725 91.6213 60.105ZM89.0559 54.6076L89.4224 53.8746C90.8884 55.7071 91.9878 57.5395 93.0873 59.372H92.3543C91.2548 57.906 90.1554 56.44 89.0559 54.6076ZM92.3543 61.9374C92.7208 63.4034 93.0873 64.5029 93.4538 65.9688L86.8569 65.2359L92.3543 61.9374ZM93.0873 61.5709L93.8203 61.2044C94.5533 62.6704 94.9198 64.5029 95.2863 65.9688H94.5533C93.8203 64.5029 93.4538 63.0369 93.0873 61.5709ZM94.9198 63.7699L102.983 61.5709C103.349 63.4034 103.716 65.2359 104.082 67.4348L95.2863 66.3353C95.2863 65.2359 94.9198 64.5029 94.9198 63.7699ZM94.5533 63.4034C94.1868 62.6704 94.1868 61.9374 93.8203 61.2044L98.2182 58.639L93.4538 59.7385C93.0873 59.0055 92.7208 58.2725 92.3543 57.5395L99.6842 53.5081C101.15 56.0736 102.25 58.639 102.983 61.2044L94.5533 63.4034ZM91.9878 57.173C91.2548 56.0736 90.5219 54.9741 89.7889 53.8746L94.9198 47.2777C96.7522 49.1102 98.2182 50.9427 99.3177 53.1416L91.9878 57.173ZM82.459 62.3039L80.6266 64.5029L76.2287 64.1364L97.8517 42.5134L82.459 62.3039ZM82.0925 24.1887H82.459C86.4904 25.2882 90.1554 26.7542 93.4538 28.5867L93.8203 28.9531C97.4852 31.1521 100.417 33.351 103.349 36.283L103.716 36.6495C106.648 39.5814 108.846 42.8798 111.045 46.1783L111.412 46.5448C113.244 49.8432 115.077 53.8746 115.81 57.5395V57.906C116.543 61.5709 117.276 65.2359 117.276 68.9008L103.716 67.4348C102.983 59.7385 100.051 52.4086 94.5533 46.9113L100.051 39.9479L93.0873 45.4453C87.5899 40.3144 80.2601 37.016 72.5637 36.283L71.0978 22.7228C75.1292 22.7228 78.7941 23.0893 82.0925 24.1887ZM70.3648 19.7908L75.8622 64.1364L74.3962 51.6757L75.8622 64.5029L75.4957 64.8694L73.6632 47.6442L74.7627 64.8694L74.3962 65.2359L73.2967 43.9793L74.3962 65.6023L74.0297 65.9688L72.9302 40.3144L73.6632 66.3353L73.2967 66.7018L72.1973 36.6495L72.9302 67.0683L72.5637 67.4348L71.8308 32.9846L72.1973 67.8013L71.8308 68.1678L71.0978 28.9531L71.4643 68.1678L71.0978 68.5343L70.7313 25.2882V68.9008L70.3648 69.6338V19.7908ZM70.3648 120.576V70.7332L75.8622 76.2306L70.3648 120.576ZM71.0978 117.644L72.5637 104.084C80.2601 103.351 87.5899 100.419 93.0873 94.9217L100.051 100.419L95.2863 93.4557C100.417 87.9584 103.716 80.6285 104.449 72.9322L118.009 71.4662C116.909 96.7542 96.7522 116.911 71.0978 117.644Z" fill="#C19B76"/>
<path d="M69.9993 0L69.6328 6.59686H69.9993V0C70.3658 0 69.9993 0 69.9993 0Z" fill="#C19B76"/>
<path d="M69.998 140C70.3645 140 70.3645 140 70.3645 140V133.77H69.998V140Z" fill="#C19B76"/>
<path d="M6.59686 70H0C0 70 0 70 0 70.3665C0 70.3665 0 70.3665 0 70.733H6.59686V70Z" fill="#C19B76"/>
<path d="M133.77 70.0003V70.3668H140.366C140.366 70.3668 140.366 70.3668 140.366 70.0003C140.366 70.0003 140.366 70.0003 140.366 69.6338H133.77V70.0003Z" fill="#C19B76"/>
<path d="M72.5644 13.9267V8.79577C72.5644 8.42927 72.5644 8.06278 72.5644 8.06278C72.5644 8.06278 72.9309 7.69629 73.2973 7.69629H71.0984H71.4649C71.8314 7.69629 71.8314 7.69629 71.8314 8.06278C71.8314 8.06278 71.8314 8.42927 71.8314 8.79577V12.4607L68.1664 7.69629H66.334H66.7005C66.7005 7.69629 67.067 7.69629 67.067 8.06278L67.4335 8.42927V12.8272C67.4335 13.1937 67.4335 13.5602 67.4335 13.5602C67.4335 13.5602 67.067 13.9267 66.7005 13.9267H66.334H68.5329H68.1664C67.8 13.9267 67.8 13.9267 67.8 13.5602C67.8 13.5602 67.8 13.1937 67.8 12.8272V9.16226L72.5644 13.9267Z" fill="#C19B76"/>
<path d="M71.4657 129.371C71.0992 129.371 70.7327 129.005 70.3662 128.638C69.6332 128.272 69.2667 127.905 68.9003 127.905L68.5338 127.539C68.5338 127.172 68.5338 127.172 68.9003 126.806C69.2667 126.439 69.2667 126.439 69.6332 126.439C69.9997 126.439 70.3662 126.439 70.3662 126.806C70.7327 126.806 70.7327 127.172 71.0992 127.539C71.0992 127.905 71.4657 128.272 71.4657 128.638V126.439V126.806C71.4657 126.806 71.4657 126.806 71.0992 126.806H70.7327C70.3662 126.806 69.9997 126.439 69.6332 126.439C69.2667 126.439 68.5338 126.439 68.1673 126.806C67.8008 127.172 67.8008 127.539 67.8008 127.905C67.8008 128.272 67.8008 128.272 67.8008 128.638C67.8008 129.005 68.1673 129.005 68.1673 129.371C68.5338 129.371 68.9003 129.738 69.2667 130.104C69.6332 130.471 69.9997 130.471 70.3662 130.837L70.7327 131.204V131.57C70.7327 131.937 70.7327 131.937 70.3662 132.303C69.9997 132.67 69.9997 132.67 69.6332 132.67C69.2667 132.67 68.9003 132.67 68.9003 132.303C68.5338 132.303 68.5338 131.937 68.1673 131.937C68.1673 131.57 67.8008 131.204 67.8008 130.837V133.036V132.67C67.8008 132.67 68.1673 132.67 68.5338 132.67C68.9003 132.67 68.9003 132.67 69.2667 132.67H69.6332C70.3662 132.67 70.7327 132.67 71.0992 132.303C71.4657 131.937 71.4657 131.57 71.4657 131.204C71.4657 130.837 71.4657 130.837 71.4657 130.471C71.8322 129.738 71.8322 129.738 71.4657 129.371Z" fill="#C19B76"/>
<path d="M8.79856 67.0677H6.59961H6.9661C6.9661 67.0677 7.33259 67.0677 7.33259 67.4342C7.33259 67.4342 7.33259 67.8006 7.69909 68.1671L9.16506 73.298L10.631 69.2666L12.097 73.298L13.9295 68.1671C13.9295 67.8006 14.2959 67.4342 14.2959 67.4342L14.6624 67.0677H15.0289H13.1965C13.563 67.0677 13.563 67.0677 13.563 67.0677C13.563 67.0677 13.563 67.0677 13.563 67.4342C13.563 67.4342 13.563 67.8006 13.1965 68.1671L12.097 71.4656L10.9975 68.1671C10.9975 67.8006 10.631 67.4342 10.631 67.4342V67.0677H10.9975H9.53155H9.89804C9.89804 67.0677 9.89804 67.0677 10.2645 67.0677C10.2645 67.0677 10.2645 67.4342 10.631 67.4342V67.8006L10.9975 68.1671L9.89804 71.0991L8.79856 67.8006C8.79856 67.4342 8.43207 67.0677 8.43207 67.0677V66.7012C8.43207 67.0677 8.43207 67.0677 8.79856 67.0677Z" fill="#C19B76"/>
<path d="M127.904 72.565C127.538 72.9315 127.538 72.9315 127.904 72.565C127.538 72.9315 127.538 72.9315 127.171 72.9315H126.805H131.569L131.936 71.4656C131.569 71.8321 131.569 72.1986 131.203 72.1986L130.836 72.565C130.836 72.565 130.47 72.565 130.103 72.565H129.004H128.637V72.1986V69.9996H130.103C130.47 69.9996 130.47 69.9996 130.836 69.9996C131.203 69.9996 131.203 69.9996 131.203 70.3661C131.203 70.3661 131.203 70.7326 131.203 71.0991V68.9001C131.203 69.2666 131.203 69.6331 130.836 69.6331C130.836 69.6331 130.47 69.6331 130.103 69.6331H128.637V67.0677H130.47C130.836 67.0677 130.836 67.0677 131.203 67.0677C131.203 67.0677 131.569 67.0677 131.569 67.4342C131.569 67.4342 131.569 67.8006 131.936 68.1671V66.7012H127.171H127.538C127.904 66.7012 127.904 66.7012 127.904 66.7012C127.904 66.7012 127.904 67.0677 127.904 67.4342V71.4656C127.904 72.565 127.904 72.565 127.904 72.565Z" fill="#C19B76"/>
</g>
<defs>
<clipPath id="clip0">
<rect width="140" height="140" fill="white"/>
</clipPath>
</defs>
</svg>
