<svg width="26" height="26" viewBox="0 0 26 26" fill="none" xmlns="http://www.w3.org/2000/svg">
<path d="M12.84 16.7832C12.859 16.8075 12.8833 16.8271 12.911 16.8406C12.9387 16.8541 12.9692 16.8611 13 16.8611C13.0308 16.8611 13.0613 16.8541 13.089 16.8406C13.1167 16.8271 13.141 16.8075 13.16 16.7832L16.0037 13.1854C16.1078 13.0533 16.0139 12.8578 15.8438 12.8578H13.9623V4.26562C13.9623 4.15391 13.8709 4.0625 13.7592 4.0625H12.2357C12.124 4.0625 12.0326 4.15391 12.0326 4.26562V12.8553H10.1562C9.98613 12.8553 9.89219 13.0508 9.99629 13.1828L12.84 16.7832ZM22.293 15.8945H20.7695C20.6578 15.8945 20.5664 15.9859 20.5664 16.0977V20.0078H5.43359V16.0977C5.43359 15.9859 5.34219 15.8945 5.23047 15.8945H3.70703C3.59531 15.8945 3.50391 15.9859 3.50391 16.0977V21.125C3.50391 21.5744 3.86699 21.9375 4.31641 21.9375H21.6836C22.133 21.9375 22.4961 21.5744 22.4961 21.125V16.0977C22.4961 15.9859 22.4047 15.8945 22.293 15.8945Z" fill="#393330"/>
</svg>
