<svg width="50" height="50" viewBox="0 0 50 50" fill="none" xmlns="http://www.w3.org/2000/svg">
<path d="M24.5005 5.5C8.00019 12 6.50021 36 24.5003 44.4998C40.5006 38 43.5006 15 24.5005 5.5Z" fill="#F3F1EB"/>
<path d="M38 24.9352C38 23.1887 37.7437 21.4421 37.2737 19.7382V19.6956C36.462 16.7563 35.0095 13.9874 32.9589 11.5167C30.8228 8.96078 27.875 6.66046 24.7136 5.04171C24.5854 4.99912 24.4573 4.99912 24.3291 5.04171C21.1677 6.66046 18.2199 8.96078 16.0411 11.5593C13.9905 14.03 12.5807 16.7563 11.769 19.6956C11.2563 21.3995 11 23.1461 11 24.9352V24.9778C11 25.0204 11 25.0204 11 25.0204C11 26.767 11.2563 28.5135 11.7263 30.26C12.538 33.2419 13.9905 36.0108 16.0411 38.4389C18.1772 40.9949 21.125 43.2952 24.2864 44.9139C24.4146 44.9565 24.5427 44.9565 24.6709 44.9139C27.8323 43.2952 30.8228 40.9949 32.9589 38.3963C35.0095 35.9256 36.4193 33.1993 37.231 30.26C37.7009 28.5561 37.9573 26.8096 37.9573 25.0204V24.9778C38 24.9778 38 24.9352 38 24.9352ZM24.6709 32.8159C24.5854 32.7307 24.4146 32.7307 24.3291 32.8159L20.9968 34.9033L17.0237 25.0204L21.0396 15.095L24.3291 17.1397C24.3718 17.1823 24.4573 17.1823 24.5 17.1823C24.5427 17.1823 24.6282 17.1823 24.6709 17.1397L27.9604 15.095L31.9335 25.0204L27.9604 34.8607L24.6709 32.8159ZM27.5759 35.3719L24.5 38.1408L21.3813 35.457L24.5 33.4975L27.5759 35.3719ZM21.4241 14.5838L24.5 11.9001L27.5759 14.5412L24.5 16.5007L21.4241 14.5838ZM28.7294 15.3506L36.462 19.8234L32.4035 24.424L28.7294 15.3506ZM36.4193 19.0992L28.6867 14.6264L32.6171 12.1557C34.3687 14.2856 35.6503 16.5859 36.4193 19.0992ZM32.1899 11.6445L28.2168 14.1578L25.0981 5.97888C27.8323 7.46983 30.2674 9.38676 32.1899 11.6445ZM27.3196 13.5188L24.7136 11.2611C24.5854 11.1759 24.4146 11.1759 24.2864 11.2611L21.6377 13.5614L24.5 6.19187L27.3196 13.5188ZM23.9019 5.97888L20.7405 14.1578L16.8101 11.6445C18.6899 9.38676 21.1677 7.46983 23.9019 5.97888ZM16.3402 12.1983L20.2706 14.6264L12.5807 19.0992C13.3497 16.6285 14.6313 14.2856 16.3402 12.1983ZM20.2278 15.3932L16.5965 24.4666L12.538 19.866L20.2278 15.3932ZM12.1962 20.4624L15.9557 24.7222L11.6408 24.637C11.6835 23.2313 11.8544 21.8255 12.1962 20.4624ZM11.6408 25.3612H15.9557L12.1535 29.5359C11.8544 28.1727 11.6835 26.767 11.6408 25.3612ZM16.5965 25.6594L20.2278 34.6903L12.538 30.1322L16.5965 25.6594ZM12.5807 30.899L20.2278 35.4145L17.3228 37.2462L16.3402 37.8426C14.6313 35.7126 13.3497 33.3697 12.5807 30.899ZM16.7674 38.3111L17.7927 37.6722L20.6551 35.883L23.8592 43.9768C21.125 42.5284 18.6899 40.5689 16.7674 38.3111ZM24.5 43.8064L24.0301 42.571L21.6377 36.522L24.2864 38.8223C24.3291 38.8649 24.4146 38.9075 24.5 38.9075C24.5854 38.9075 24.6709 38.8649 24.7136 38.8223L27.3196 36.4794L24.5 43.8064ZM25.0981 43.9768L28.2595 35.7978L32.1899 38.3111C30.2674 40.5689 27.8323 42.5284 25.0981 43.9768ZM32.6598 37.8L28.7294 35.3719L36.4193 30.899C35.6503 33.3697 34.3687 35.67 32.6598 37.8ZM28.7722 34.6051L32.4035 25.6594L36.462 30.1322L28.7722 34.6051ZM36.8038 29.5359L33.0016 25.3612H37.3165C37.3165 26.767 37.1456 28.1727 36.8038 29.5359ZM33.0016 24.7222L36.8038 20.4624C37.1456 21.8681 37.3165 23.3165 37.3592 24.7222H33.0016Z" fill="#393330"/>
</svg>
