<svg width="36" height="28" viewBox="0 0 36 28" fill="none" xmlns="http://www.w3.org/2000/svg">
<g clip-path="url(#clip0)">
<path d="M0.5 7.5L10.5 0.5H25.5L35.5 8L18 27.5L0.5 7.5Z" fill="#F3F1EB"/>
<path d="M30.1816 3.37396L25.5652 0.0775623C25.5264 0.0387812 25.4489 0 25.3713 0C23.9359 0 10.6299 0 10.6299 0C10.5523 0 10.4747 0.0387812 10.3971 0.0775623L0.155756 7.4072C-0.0382091 7.52355 -0.0770022 7.79501 0.0781702 7.98892L8.923 18.072L17.8066 27.9224C17.8454 27.9612 17.923 28 18.0006 28C18.0782 28 18.1558 27.9612 18.1945 27.9224C19.0868 26.9141 26.923 18.072 26.923 18.072L35.8842 7.95014C36.0394 7.79501 36.0006 7.52355 35.8066 7.36842C34.5652 6.47645 30.1816 3.37396 30.1816 3.37396ZM30.2592 4.1108L34.8368 7.36842H29.9489L30.2592 4.1108ZM25.4877 0.698061L29.7161 3.72299L29.4058 7.2133L23.6644 3.87812L25.4877 0.698061ZM22.8885 7.98892L22.5006 9.38504L20.6773 16.2881L18.3497 7.98892H22.8885ZM18.9316 7.4072L23.0049 4.57618V7.4072H18.9316ZM21.6471 14.9695L23.5092 7.98892H28.979L21.2592 16.3269L21.6471 14.9695ZM23.548 7.4072V4.49862L28.5523 7.4072H23.548ZM24.9058 0.581717L24.479 1.31856L23.1989 3.56787L18.9316 0.581717H24.9058V0.581717ZM22.7721 3.99446L18.0006 7.32964L14.3928 4.80886L13.229 3.99446L18.0006 0.65928L22.7721 3.99446ZM12.492 7.98892L14.6644 16.3269L7.02214 7.98892H12.492ZM7.41007 7.4072L12.4144 4.49862V7.4072H7.41007ZM13.0739 7.98892H17.6127L15.3627 15.9778L15.2463 16.2881L13.0739 7.98892ZM12.9963 7.4072V4.5374L17.0695 7.4072H12.9963ZM17.0695 0.581717L12.8023 3.56787L11.5221 1.31856L11.0954 0.581717H17.0695V0.581717ZM10.5135 0.698061L12.3368 3.87812L6.59541 7.2133L6.28507 3.72299L10.5135 0.698061ZM5.70317 4.1108L6.01351 7.36842H1.12558L5.70317 4.1108ZM0.854032 7.98892H6.0911L8.53507 16.7535L0.854032 7.98892ZM9.38851 17.723L9.00058 16.2881L6.94455 8.72576L14.9747 17.4903L17.4187 26.6039L9.38851 17.723ZM18.0006 26.6039L15.5566 17.374L18.0006 8.76454L20.4058 17.374L18.0006 26.6039ZM26.4575 17.723L18.5825 26.6427L20.9489 17.5291L29.0178 8.80332L26.4575 17.723ZM27.3109 16.7535L29.8325 7.98892H35.0696L27.3109 16.7535Z" fill="#200023"/>
</g>
<defs>
<clipPath id="clip0">
<rect width="36" height="28" fill="white"/>
</clipPath>
</defs>
</svg>
