<svg width="42" height="43" viewBox="0 0 42 43" fill="none" xmlns="http://www.w3.org/2000/svg">
<path d="M39.5 21.5C39.5 12.1243 31.6784 4.5 22 4.5C12.3217 4.49999 4.5 12.1243 4.5 21.5C4.5 30.8757 12.3216 38.5 22 38.5C31.6783 38.5 39.5 30.8757 39.5 21.5Z" stroke="#7B786E"/>
<path d="M23.5 26L19.5 21.5L23.5 17" stroke="#393330" stroke-width="1.6"/>
</svg>
